^D:\PROJECTS\CMAKE HTTP FUNCTIONS\SRC\MAIN.CPP
D:\PROJECTS\CMAKE HTTP FUNCTIONS\INCLUDE\HTTPEQUATION.H
C:\PROGRAM FILES (X86)\MICROSOFT VISUAL STUDIO\2017\COMMUNITY\VC\TOOLS\MSVC\14.10.25017\INCLUDE\STRING
C:\PROGRAM FILES (X86)\MICROSOFT VISUAL STUDIO\2017\COMMUNITY\VC\TOOLS\MSVC\14.10.25017\INCLUDE\ISTREAM
C:\PROGRAM FILES (X86)\MICROSOFT VISUAL STUDIO\2017\COMMUNITY\VC\TOOLS\MSVC\14.10.25017\INCLUDE\OSTREAM
C:\PROGRAM FILES (X86)\MICROSOFT VISUAL STUDIO\2017\COMMUNITY\VC\TOOLS\MSVC\14.10.25017\INCLUDE\IOS
C:\PROGRAM FILES (X86)\MICROSOFT VISUAL STUDIO\2017\COMMUNITY\VC\TOOLS\MSVC\14.10.25017\INCLUDE\XLOCNUM
C:\PROGRAM FILES (X86)\MICROSOFT VISUAL STUDIO\2017\COMMUNITY\VC\TOOLS\MSVC\14.10.25017\INCLUDE\CLIMITS
C:\PROGRAM FILES (X86)\MICROSOFT VISUAL STUDIO\2017\COMMUNITY\VC\TOOLS\MSVC\14.10.25017\INCLUDE\YVALS.H
C:\PROGRAM FILES (X86)\MICROSOFT VISUAL STUDIO\2017\COMMUNITY\VC\TOOLS\MSVC\14.10.25017\INCLUDE\XKEYCHECK.H
C:\PROGRAM FILES (X86)\MICROSOFT VISUAL STUDIO\2017\COMMUNITY\VC\TOOLS\MSVC\14.10.25017\INCLUDE\CRTDEFS.H
C:\PROGRAM FILES (X86)\MICROSOFT VISUAL STUDIO\2017\COMMUNITY\VC\TOOLS\MSVC\14.10.25017\INCLUDE\VCRUNTIME.H
C:\PROGRAM FILES (X86)\MICROSOFT VISUAL STUDIO\2017\COMMUNITY\VC\TOOLS\MSVC\14.10.25017\INCLUDE\SAL.H
C:\PROGRAM FILES (X86)\MICROSOFT VISUAL STUDIO\2017\COMMUNITY\VC\TOOLS\MSVC\14.10.25017\INCLUDE\CONCURRENCYSAL.H
C:\PROGRAM FILES (X86)\MICROSOFT VISUAL STUDIO\2017\COMMUNITY\VC\TOOLS\MSVC\14.10.25017\INCLUDE\VADEFS.H
C:\PROGRAM FILES (X86)\WINDOWS KITS\10\INCLUDE\10.0.10240.0\UCRT\CORECRT.H
C:\PROGRAM FILES (X86)\MICROSOFT VISUAL STUDIO\2017\COMMUNITY\VC\TOOLS\MSVC\14.10.25017\INCLUDE\USE_ANSI.H
C:\PROGRAM FILES (X86)\MICROSOFT VISUAL STUDIO\2017\COMMUNITY\VC\TOOLS\MSVC\14.10.25017\INCLUDE\LIMITS.H
C:\PROGRAM FILES (X86)\MICROSOFT VISUAL STUDIO\2017\COMMUNITY\VC\TOOLS\MSVC\14.10.25017\INCLUDE\CMATH
C:\PROGRAM FILES (X86)\MICROSOFT VISUAL STUDIO\2017\COMMUNITY\VC\TOOLS\MSVC\14.10.25017\INCLUDE\CSTDLIB
C:\PROGRAM FILES (X86)\WINDOWS KITS\10\INCLUDE\10.0.10240.0\UCRT\STDLIB.H
C:\PROGRAM FILES (X86)\WINDOWS KITS\10\INCLUDE\10.0.10240.0\UCRT\CORECRT_MALLOC.H
C:\PROGRAM FILES (X86)\WINDOWS KITS\10\INCLUDE\10.0.10240.0\UCRT\CORECRT_SEARCH.H
C:\PROGRAM FILES (X86)\WINDOWS KITS\10\INCLUDE\10.0.10240.0\UCRT\STDDEF.H
C:\PROGRAM FILES (X86)\WINDOWS KITS\10\INCLUDE\10.0.10240.0\UCRT\CORECRT_WSTDLIB.H
C:\PROGRAM FILES (X86)\WINDOWS KITS\10\INCLUDE\10.0.10240.0\UCRT\MATH.H
C:\PROGRAM FILES (X86)\MICROSOFT VISUAL STUDIO\2017\COMMUNITY\VC\TOOLS\MSVC\14.10.25017\INCLUDE\XTGMATH.H
C:\PROGRAM FILES (X86)\MICROSOFT VISUAL STUDIO\2017\COMMUNITY\VC\TOOLS\MSVC\14.10.25017\INCLUDE\XTR1COMMON
C:\PROGRAM FILES (X86)\MICROSOFT VISUAL STUDIO\2017\COMMUNITY\VC\TOOLS\MSVC\14.10.25017\INCLUDE\CSTDIO
C:\PROGRAM FILES (X86)\WINDOWS KITS\10\INCLUDE\10.0.10240.0\UCRT\STDIO.H
C:\PROGRAM FILES (X86)\WINDOWS KITS\10\INCLUDE\10.0.10240.0\UCRT\CORECRT_WSTDIO.H
C:\PROGRAM FILES (X86)\WINDOWS KITS\10\INCLUDE\10.0.10240.0\UCRT\CORECRT_STDIO_CONFIG.H
C:\PROGRAM FILES (X86)\MICROSOFT VISUAL STUDIO\2017\COMMUNITY\VC\TOOLS\MSVC\14.10.25017\INCLUDE\STREAMBUF
C:\PROGRAM FILES (X86)\MICROSOFT VISUAL STUDIO\2017\COMMUNITY\VC\TOOLS\MSVC\14.10.25017\INCLUDE\XIOSBASE
C:\PROGRAM FILES (X86)\MICROSOFT VISUAL STUDIO\2017\COMMUNITY\VC\TOOLS\MSVC\14.10.25017\INCLUDE\XLOCALE
C:\PROGRAM FILES (X86)\MICROSOFT VISUAL STUDIO\2017\COMMUNITY\VC\TOOLS\MSVC\14.10.25017\INCLUDE\CSTRING
C:\PROGRAM FILES (X86)\WINDOWS KITS\10\INCLUDE\10.0.10240.0\UCRT\STRING.H
C:\PROGRAM FILES (X86)\WINDOWS KITS\10\INCLUDE\10.0.10240.0\UCRT\CORECRT_MEMORY.H
C:\PROGRAM FILES (X86)\WINDOWS KITS\10\INCLUDE\10.0.10240.0\UCRT\CORECRT_MEMCPY_S.H
C:\PROGRAM FILES (X86)\WINDOWS KITS\10\INCLUDE\10.0.10240.0\UCRT\ERRNO.H
C:\PROGRAM FILES (X86)\MICROSOFT VISUAL STUDIO\2017\COMMUNITY\VC\TOOLS\MSVC\14.10.25017\INCLUDE\VCRUNTIME_STRING.H
C:\PROGRAM FILES (X86)\WINDOWS KITS\10\INCLUDE\10.0.10240.0\UCRT\CORECRT_WSTRING.H
C:\PROGRAM FILES (X86)\MICROSOFT VISUAL STUDIO\2017\COMMUNITY\VC\TOOLS\MSVC\14.10.25017\INCLUDE\STDEXCEPT
C:\PROGRAM FILES (X86)\MICROSOFT VISUAL STUDIO\2017\COMMUNITY\VC\TOOLS\MSVC\14.10.25017\INCLUDE\EXCEPTION
C:\PROGRAM FILES (X86)\MICROSOFT VISUAL STUDIO\2017\COMMUNITY\VC\TOOLS\MSVC\14.10.25017\INCLUDE\TYPE_TRAITS
C:\PROGRAM FILES (X86)\MICROSOFT VISUAL STUDIO\2017\COMMUNITY\VC\TOOLS\MSVC\14.10.25017\INCLUDE\XSTDDEF
C:\PROGRAM FILES (X86)\MICROSOFT VISUAL STUDIO\2017\COMMUNITY\VC\TOOLS\MSVC\14.10.25017\INCLUDE\CSTDDEF
C:\PROGRAM FILES (X86)\MICROSOFT VISUAL STUDIO\2017\COMMUNITY\VC\TOOLS\MSVC\14.10.25017\INCLUDE\INITIALIZER_LIST
C:\PROGRAM FILES (X86)\WINDOWS KITS\10\INCLUDE\10.0.10240.0\UCRT\MALLOC.H
C:\PROGRAM FILES (X86)\MICROSOFT VISUAL STUDIO\2017\COMMUNITY\VC\TOOLS\MSVC\14.10.25017\INCLUDE\VCRUNTIME_EXCEPTION.H
C:\PROGRAM FILES (X86)\MICROSOFT VISUAL STUDIO\2017\COMMUNITY\VC\TOOLS\MSVC\14.10.25017\INCLUDE\EH.H
C:\PROGRAM FILES (X86)\WINDOWS KITS\10\INCLUDE\10.0.10240.0\UCRT\CORECRT_TERMINATE.H
C:\PROGRAM FILES (X86)\MICROSOFT VISUAL STUDIO\2017\COMMUNITY\VC\TOOLS\MSVC\14.10.25017\INCLUDE\XSTRING
C:\PROGRAM FILES (X86)\MICROSOFT VISUAL STUDIO\2017\COMMUNITY\VC\TOOLS\MSVC\14.10.25017\INCLUDE\XMEMORY0
C:\PROGRAM FILES (X86)\MICROSOFT VISUAL STUDIO\2017\COMMUNITY\VC\TOOLS\MSVC\14.10.25017\INCLUDE\CSTDINT
C:\PROGRAM FILES (X86)\MICROSOFT VISUAL STUDIO\2017\COMMUNITY\VC\TOOLS\MSVC\14.10.25017\INCLUDE\STDINT.H
C:\PROGRAM FILES (X86)\MICROSOFT VISUAL STUDIO\2017\COMMUNITY\VC\TOOLS\MSVC\14.10.25017\INCLUDE\LIMITS
C:\PROGRAM FILES (X86)\MICROSOFT VISUAL STUDIO\2017\COMMUNITY\VC\TOOLS\MSVC\14.10.25017\INCLUDE\YMATH.H
C:\PROGRAM FILES (X86)\MICROSOFT VISUAL STUDIO\2017\COMMUNITY\VC\TOOLS\MSVC\14.10.25017\INCLUDE\CFLOAT
C:\PROGRAM FILES (X86)\WINDOWS KITS\10\INCLUDE\10.0.10240.0\UCRT\FLOAT.H
C:\PROGRAM FILES (X86)\MICROSOFT VISUAL STUDIO\2017\COMMUNITY\VC\TOOLS\MSVC\14.10.25017\INCLUDE\CWCHAR
C:\PROGRAM FILES (X86)\WINDOWS KITS\10\INCLUDE\10.0.10240.0\UCRT\WCHAR.H
C:\PROGRAM FILES (X86)\WINDOWS KITS\10\INCLUDE\10.0.10240.0\UCRT\CORECRT_WCONIO.H
C:\PROGRAM FILES (X86)\WINDOWS KITS\10\INCLUDE\10.0.10240.0\UCRT\CORECRT_WCTYPE.H
C:\PROGRAM FILES (X86)\WINDOWS KITS\10\INCLUDE\10.0.10240.0\UCRT\CORECRT_WDIRECT.H
C:\PROGRAM FILES (X86)\WINDOWS KITS\10\INCLUDE\10.0.10240.0\UCRT\CORECRT_WIO.H
C:\PROGRAM FILES (X86)\WINDOWS KITS\10\INCLUDE\10.0.10240.0\UCRT\CORECRT_SHARE.H
C:\PROGRAM FILES (X86)\WINDOWS KITS\10\INCLUDE\10.0.10240.0\UCRT\CORECRT_WPROCESS.H
C:\PROGRAM FILES (X86)\WINDOWS KITS\10\INCLUDE\10.0.10240.0\UCRT\CORECRT_WTIME.H
C:\PROGRAM FILES (X86)\WINDOWS KITS\10\INCLUDE\10.0.10240.0\UCRT\SYS\STAT.H
C:\PROGRAM FILES (X86)\WINDOWS KITS\10\INCLUDE\10.0.10240.0\UCRT\SYS\TYPES.H
C:\PROGRAM FILES (X86)\MICROSOFT VISUAL STUDIO\2017\COMMUNITY\VC\TOOLS\MSVC\14.10.25017\INCLUDE\NEW
C:\PROGRAM FILES (X86)\MICROSOFT VISUAL STUDIO\2017\COMMUNITY\VC\TOOLS\MSVC\14.10.25017\INCLUDE\VCRUNTIME_NEW.H
C:\PROGRAM FILES (X86)\MICROSOFT VISUAL STUDIO\2017\COMMUNITY\VC\TOOLS\MSVC\14.10.25017\INCLUDE\XUTILITY
C:\PROGRAM FILES (X86)\MICROSOFT VISUAL STUDIO\2017\COMMUNITY\VC\TOOLS\MSVC\14.10.25017\INCLUDE\UTILITY
C:\PROGRAM FILES (X86)\MICROSOFT VISUAL STUDIO\2017\COMMUNITY\VC\TOOLS\MSVC\14.10.25017\INCLUDE\IOSFWD
C:\PROGRAM FILES (X86)\WINDOWS KITS\10\INCLUDE\10.0.10240.0\UCRT\CRTDBG.H
C:\PROGRAM FILES (X86)\MICROSOFT VISUAL STUDIO\2017\COMMUNITY\VC\TOOLS\MSVC\14.10.25017\INCLUDE\VCRUNTIME_NEW_DEBUG.H
C:\PROGRAM FILES (X86)\MICROSOFT VISUAL STUDIO\2017\COMMUNITY\VC\TOOLS\MSVC\14.10.25017\INCLUDE\XATOMIC0.H
C:\PROGRAM FILES (X86)\MICROSOFT VISUAL STUDIO\2017\COMMUNITY\VC\TOOLS\MSVC\14.10.25017\INCLUDE\INTRIN0.H
C:\PROGRAM FILES (X86)\MICROSOFT VISUAL STUDIO\2017\COMMUNITY\VC\TOOLS\MSVC\14.10.25017\INCLUDE\TYPEINFO
C:\PROGRAM FILES (X86)\MICROSOFT VISUAL STUDIO\2017\COMMUNITY\VC\TOOLS\MSVC\14.10.25017\INCLUDE\VCRUNTIME_TYPEINFO.H
C:\PROGRAM FILES (X86)\MICROSOFT VISUAL STUDIO\2017\COMMUNITY\VC\TOOLS\MSVC\14.10.25017\INCLUDE\XLOCINFO
C:\PROGRAM FILES (X86)\MICROSOFT VISUAL STUDIO\2017\COMMUNITY\VC\TOOLS\MSVC\14.10.25017\INCLUDE\XLOCINFO.H
C:\PROGRAM FILES (X86)\WINDOWS KITS\10\INCLUDE\10.0.10240.0\UCRT\CTYPE.H
C:\PROGRAM FILES (X86)\WINDOWS KITS\10\INCLUDE\10.0.10240.0\UCRT\LOCALE.H
C:\PROGRAM FILES (X86)\MICROSOFT VISUAL STUDIO\2017\COMMUNITY\VC\TOOLS\MSVC\14.10.25017\INCLUDE\XFACET
C:\PROGRAM FILES (X86)\MICROSOFT VISUAL STUDIO\2017\COMMUNITY\VC\TOOLS\MSVC\14.10.25017\INCLUDE\SYSTEM_ERROR
C:\PROGRAM FILES (X86)\MICROSOFT VISUAL STUDIO\2017\COMMUNITY\VC\TOOLS\MSVC\14.10.25017\INCLUDE\CERRNO
C:\PROGRAM FILES (X86)\WINDOWS KITS\10\INCLUDE\10.0.10240.0\UCRT\SHARE.H
C:\PROGRAM FILES (X86)\MICROSOFT VISUAL STUDIO\2017\COMMUNITY\VC\TOOLS\MSVC\14.10.25017\INCLUDE\XSTRING_INSERT.H
C:\PROGRAM FILES (X86)\MICROSOFT VISUAL STUDIO\2017\COMMUNITY\VC\TOOLS\MSVC\14.10.25017\INCLUDE\IOSTREAM
C:\PROGRAM FILES (X86)\MICROSOFT VISUAL STUDIO\2017\COMMUNITY\VC\TOOLS\MSVC\14.10.25017\INCLUDE\MEMORY
C:\PROGRAM FILES (X86)\MICROSOFT VISUAL STUDIO\2017\COMMUNITY\VC\TOOLS\MSVC\14.10.25017\INCLUDE\XMEMORY
C:\PROGRAM FILES (X86)\MICROSOFT VISUAL STUDIO\2017\COMMUNITY\VC\TOOLS\MSVC\14.10.25017\INCLUDE\MAP
C:\PROGRAM FILES (X86)\MICROSOFT VISUAL STUDIO\2017\COMMUNITY\VC\TOOLS\MSVC\14.10.25017\INCLUDE\TUPLE
C:\PROGRAM FILES (X86)\MICROSOFT VISUAL STUDIO\2017\COMMUNITY\VC\TOOLS\MSVC\14.10.25017\INCLUDE\XTREE
D:\PROJECTS\CMAKE HTTP FUNCTIONS\INCLUDE\ASIO.HPP
D:\PROJECTS\CMAKE HTTP FUNCTIONS\INCLUDE\ASIO-1.10.6\INCLUDE\ASIO\ASYNC_RESULT.HPP
D:\PROJECTS\CMAKE HTTP FUNCTIONS\INCLUDE\ASIO-1.10.6\INCLUDE\ASIO\DETAIL\CONFIG.HPP
D:\PROJECTS\CMAKE HTTP FUNCTIONS\INCLUDE\ASIO-1.10.6\INCLUDE\ASIO\HANDLER_TYPE.HPP
D:\PROJECTS\CMAKE HTTP FUNCTIONS\INCLUDE\ASIO-1.10.6\INCLUDE\ASIO\DETAIL\PUSH_OPTIONS.HPP
D:\PROJECTS\CMAKE HTTP FUNCTIONS\INCLUDE\ASIO-1.10.6\INCLUDE\ASIO\DETAIL\POP_OPTIONS.HPP
D:\PROJECTS\CMAKE HTTP FUNCTIONS\INCLUDE\ASIO-1.10.6\INCLUDE\ASIO\BASIC_DATAGRAM_SOCKET.HPP
D:\PROJECTS\CMAKE HTTP FUNCTIONS\INCLUDE\ASIO-1.10.6\INCLUDE\ASIO\BASIC_SOCKET.HPP
D:\PROJECTS\CMAKE HTTP FUNCTIONS\INCLUDE\ASIO-1.10.6\INCLUDE\ASIO\BASIC_IO_OBJECT.HPP
D:\PROJECTS\CMAKE HTTP FUNCTIONS\INCLUDE\ASIO-1.10.6\INCLUDE\ASIO\IO_SERVICE.HPP
D:\PROJECTS\CMAKE HTTP FUNCTIONS\INCLUDE\ASIO-1.10.6\INCLUDE\ASIO\DETAIL\NONCOPYABLE.HPP
D:\PROJECTS\CMAKE HTTP FUNCTIONS\INCLUDE\ASIO-1.10.6\INCLUDE\ASIO\DETAIL\WRAPPED_HANDLER.HPP
D:\PROJECTS\CMAKE HTTP FUNCTIONS\INCLUDE\ASIO-1.10.6\INCLUDE\ASIO\DETAIL\BIND_HANDLER.HPP
D:\PROJECTS\CMAKE HTTP FUNCTIONS\INCLUDE\ASIO-1.10.6\INCLUDE\ASIO\DETAIL\HANDLER_ALLOC_HELPERS.HPP
D:\PROJECTS\CMAKE HTTP FUNCTIONS\INCLUDE\ASIO-1.10.6\INCLUDE\ASIO\DETAIL\ADDRESSOF.HPP
D:\PROJECTS\CMAKE HTTP FUNCTIONS\INCLUDE\ASIO-1.10.6\INCLUDE\ASIO\HANDLER_ALLOC_HOOK.HPP
D:\PROJECTS\CMAKE HTTP FUNCTIONS\INCLUDE\ASIO-1.10.6\INCLUDE\ASIO\IMPL\HANDLER_ALLOC_HOOK.IPP
D:\PROJECTS\CMAKE HTTP FUNCTIONS\INCLUDE\ASIO-1.10.6\INCLUDE\ASIO\DETAIL\CALL_STACK.HPP
D:\PROJECTS\CMAKE HTTP FUNCTIONS\INCLUDE\ASIO-1.10.6\INCLUDE\ASIO\DETAIL\TSS_PTR.HPP
D:\PROJECTS\CMAKE HTTP FUNCTIONS\INCLUDE\ASIO-1.10.6\INCLUDE\ASIO\DETAIL\WIN_TSS_PTR.HPP
D:\PROJECTS\CMAKE HTTP FUNCTIONS\INCLUDE\ASIO-1.10.6\INCLUDE\ASIO\DETAIL\SOCKET_TYPES.HPP
C:\PROGRAM FILES (X86)\WINDOWS KITS\8.1\INCLUDE\UM\WINSOCK2.H
C:\PROGRAM FILES (X86)\WINDOWS KITS\8.1\INCLUDE\SHARED\WINAPIFAMILY.H
C:\PROGRAM FILES (X86)\WINDOWS KITS\8.1\INCLUDE\UM\WINDOWS.H
C:\PROGRAM FILES (X86)\WINDOWS KITS\8.1\INCLUDE\SHARED\SDKDDKVER.H
C:\PROGRAM FILES (X86)\MICROSOFT VISUAL STUDIO\2017\COMMUNITY\VC\TOOLS\MSVC\14.10.25017\INCLUDE\EXCPT.H
C:\PROGRAM FILES (X86)\MICROSOFT VISUAL STUDIO\2017\COMMUNITY\VC\TOOLS\MSVC\14.10.25017\INCLUDE\STDARG.H
C:\PROGRAM FILES (X86)\WINDOWS KITS\8.1\INCLUDE\SHARED\WINDEF.H
C:\PROGRAM FILES (X86)\WINDOWS KITS\8.1\INCLUDE\SHARED\MINWINDEF.H
C:\PROGRAM FILES (X86)\WINDOWS KITS\8.1\INCLUDE\SHARED\SPECSTRINGS.H
C:\PROGRAM FILES (X86)\WINDOWS KITS\8.1\INCLUDE\SHARED\SPECSTRINGS_STRICT.H
C:\PROGRAM FILES (X86)\WINDOWS KITS\8.1\INCLUDE\SHARED\SPECSTRINGS_UNDEF.H
C:\PROGRAM FILES (X86)\WINDOWS KITS\8.1\INCLUDE\SHARED\DRIVERSPECS.H
C:\PROGRAM FILES (X86)\WINDOWS KITS\8.1\INCLUDE\SHARED\SDV_DRIVERSPECS.H
C:\PROGRAM FILES (X86)\WINDOWS KITS\8.1\INCLUDE\UM\WINNT.H
C:\PROGRAM FILES (X86)\WINDOWS KITS\8.1\INCLUDE\SHARED\KERNELSPECS.H
C:\PROGRAM FILES (X86)\WINDOWS KITS\8.1\INCLUDE\SHARED\BASETSD.H
C:\PROGRAM FILES (X86)\WINDOWS KITS\8.1\INCLUDE\SHARED\GUIDDEF.H
C:\PROGRAM FILES (X86)\WINDOWS KITS\8.1\INCLUDE\SHARED\PSHPACK4.H
C:\PROGRAM FILES (X86)\WINDOWS KITS\8.1\INCLUDE\SHARED\POPPACK.H
C:\PROGRAM FILES (X86)\WINDOWS KITS\8.1\INCLUDE\SHARED\PSHPACK2.H
C:\PROGRAM FILES (X86)\WINDOWS KITS\8.1\INCLUDE\SHARED\PSHPACK8.H
C:\PROGRAM FILES (X86)\WINDOWS KITS\8.1\INCLUDE\SHARED\APISET.H
C:\PROGRAM FILES (X86)\WINDOWS KITS\8.1\INCLUDE\SHARED\KTMTYPES.H
C:\PROGRAM FILES (X86)\WINDOWS KITS\8.1\INCLUDE\UM\WINBASE.H
C:\PROGRAM FILES (X86)\WINDOWS KITS\8.1\INCLUDE\SHARED\APISETCCONV.H
C:\PROGRAM FILES (X86)\WINDOWS KITS\8.1\INCLUDE\UM\MINWINBASE.H
C:\PROGRAM FILES (X86)\WINDOWS KITS\8.1\INCLUDE\UM\PROCESSENV.H
C:\PROGRAM FILES (X86)\WINDOWS KITS\8.1\INCLUDE\UM\FILEAPI.H
C:\PROGRAM FILES (X86)\WINDOWS KITS\8.1\INCLUDE\UM\DEBUGAPI.H
C:\PROGRAM FILES (X86)\WINDOWS KITS\8.1\INCLUDE\UM\UTILAPISET.H
C:\PROGRAM FILES (X86)\WINDOWS KITS\8.1\INCLUDE\UM\HANDLEAPI.H
C:\PROGRAM FILES (X86)\WINDOWS KITS\8.1\INCLUDE\UM\ERRHANDLINGAPI.H
C:\PROGRAM FILES (X86)\WINDOWS KITS\8.1\INCLUDE\UM\FIBERSAPI.H
C:\PROGRAM FILES (X86)\WINDOWS KITS\8.1\INCLUDE\UM\NAMEDPIPEAPI.H
C:\PROGRAM FILES (X86)\WINDOWS KITS\8.1\INCLUDE\UM\PROFILEAPI.H
C:\PROGRAM FILES (X86)\WINDOWS KITS\8.1\INCLUDE\UM\HEAPAPI.H
C:\PROGRAM FILES (X86)\WINDOWS KITS\8.1\INCLUDE\UM\IOAPISET.H
C:\PROGRAM FILES (X86)\WINDOWS KITS\8.1\INCLUDE\UM\SYNCHAPI.H
C:\PROGRAM FILES (X86)\WINDOWS KITS\8.1\INCLUDE\UM\INTERLOCKEDAPI.H
C:\PROGRAM FILES (X86)\WINDOWS KITS\8.1\INCLUDE\UM\PROCESSTHREADSAPI.H
C:\PROGRAM FILES (X86)\WINDOWS KITS\8.1\INCLUDE\UM\SYSINFOAPI.H
C:\PROGRAM FILES (X86)\WINDOWS KITS\8.1\INCLUDE\UM\MEMORYAPI.H
C:\PROGRAM FILES (X86)\WINDOWS KITS\8.1\INCLUDE\UM\THREADPOOLLEGACYAPISET.H
C:\PROGRAM FILES (X86)\WINDOWS KITS\8.1\INCLUDE\UM\THREADPOOLAPISET.H
C:\PROGRAM FILES (X86)\WINDOWS KITS\8.1\INCLUDE\UM\BEMAPISET.H
C:\PROGRAM FILES (X86)\WINDOWS KITS\8.1\INCLUDE\UM\JOBAPI.H
C:\PROGRAM FILES (X86)\WINDOWS KITS\8.1\INCLUDE\UM\WOW64APISET.H
C:\PROGRAM FILES (X86)\WINDOWS KITS\8.1\INCLUDE\UM\LIBLOADERAPI.H
C:\PROGRAM FILES (X86)\WINDOWS KITS\8.1\INCLUDE\UM\SECURITYBASEAPI.H
C:\PROGRAM FILES (X86)\WINDOWS KITS\8.1\INCLUDE\UM\NAMESPACEAPI.H
C:\PROGRAM FILES (X86)\WINDOWS KITS\8.1\INCLUDE\UM\SYSTEMTOPOLOGYAPI.H
C:\PROGRAM FILES (X86)\WINDOWS KITS\8.1\INCLUDE\UM\PROCESSTOPOLOGYAPI.H
C:\PROGRAM FILES (X86)\WINDOWS KITS\8.1\INCLUDE\UM\SECURITYAPPCONTAINER.H
C:\PROGRAM FILES (X86)\WINDOWS KITS\8.1\INCLUDE\UM\REALTIMEAPISET.H
C:\PROGRAM FILES (X86)\WINDOWS KITS\8.1\INCLUDE\SHARED\WINERROR.H
C:\PROGRAM FILES (X86)\WINDOWS KITS\8.1\INCLUDE\UM\TIMEZONEAPI.H
C:\PROGRAM FILES (X86)\WINDOWS KITS\8.1\INCLUDE\UM\WINGDI.H
C:\PROGRAM FILES (X86)\WINDOWS KITS\8.1\INCLUDE\SHARED\PSHPACK1.H
C:\PROGRAM FILES (X86)\WINDOWS KITS\8.1\INCLUDE\UM\WINUSER.H
C:\PROGRAM FILES (X86)\WINDOWS KITS\8.1\INCLUDE\SHARED\TVOUT.H
C:\PROGRAM FILES (X86)\WINDOWS KITS\8.1\INCLUDE\UM\WINNLS.H
C:\PROGRAM FILES (X86)\WINDOWS KITS\8.1\INCLUDE\UM\DATETIMEAPI.H
C:\PROGRAM FILES (X86)\WINDOWS KITS\8.1\INCLUDE\UM\STRINGAPISET.H
C:\PROGRAM FILES (X86)\WINDOWS KITS\8.1\INCLUDE\UM\WINCON.H
C:\PROGRAM FILES (X86)\WINDOWS KITS\8.1\INCLUDE\UM\CONSOLEAPI.H
C:\PROGRAM FILES (X86)\WINDOWS KITS\8.1\INCLUDE\UM\WINVER.H
C:\PROGRAM FILES (X86)\WINDOWS KITS\8.1\INCLUDE\UM\VERRSRC.H
C:\PROGRAM FILES (X86)\WINDOWS KITS\8.1\INCLUDE\UM\WINREG.H
C:\PROGRAM FILES (X86)\WINDOWS KITS\8.1\INCLUDE\UM\REASON.H
C:\PROGRAM FILES (X86)\WINDOWS KITS\8.1\INCLUDE\UM\WINNETWK.H
C:\PROGRAM FILES (X86)\WINDOWS KITS\8.1\INCLUDE\SHARED\WNNC.H
C:\PROGRAM FILES (X86)\WINDOWS KITS\8.1\INCLUDE\SHARED\STRALIGN.H
C:\PROGRAM FILES (X86)\WINDOWS KITS\8.1\INCLUDE\UM\WINSVC.H
C:\PROGRAM FILES (X86)\WINDOWS KITS\8.1\INCLUDE\UM\MCX.H
C:\PROGRAM FILES (X86)\WINDOWS KITS\8.1\INCLUDE\UM\IMM.H
C:\PROGRAM FILES (X86)\WINDOWS KITS\8.1\INCLUDE\UM\IME_CMODES.H
C:\PROGRAM FILES (X86)\WINDOWS KITS\8.1\INCLUDE\SHARED\WS2DEF.H
C:\PROGRAM FILES (X86)\WINDOWS KITS\8.1\INCLUDE\SHARED\INADDR.H
C:\PROGRAM FILES (X86)\WINDOWS KITS\8.1\INCLUDE\SHARED\QOS.H
C:\PROGRAM FILES (X86)\WINDOWS KITS\8.1\INCLUDE\UM\WS2TCPIP.H
C:\PROGRAM FILES (X86)\WINDOWS KITS\8.1\INCLUDE\SHARED\WS2IPDEF.H
C:\PROGRAM FILES (X86)\WINDOWS KITS\8.1\INCLUDE\SHARED\IN6ADDR.H
C:\PROGRAM FILES (X86)\WINDOWS KITS\8.1\INCLUDE\UM\MSWSOCK.H
C:\PROGRAM FILES (X86)\WINDOWS KITS\8.1\INCLUDE\SHARED\MSWSOCKDEF.H
D:\PROJECTS\CMAKE HTTP FUNCTIONS\INCLUDE\ASIO-1.10.6\INCLUDE\ASIO\DETAIL\OLD_WIN_SDK_COMPAT.HPP
D:\PROJECTS\CMAKE HTTP FUNCTIONS\INCLUDE\ASIO-1.10.6\INCLUDE\ASIO\DETAIL\IMPL\WIN_TSS_PTR.IPP
D:\PROJECTS\CMAKE HTTP FUNCTIONS\INCLUDE\ASIO-1.10.6\INCLUDE\ASIO\DETAIL\THROW_ERROR.HPP
D:\PROJECTS\CMAKE HTTP FUNCTIONS\INCLUDE\ASIO-1.10.6\INCLUDE\ASIO\ERROR_CODE.HPP
D:\PROJECTS\CMAKE HTTP FUNCTIONS\INCLUDE\ASIO-1.10.6\INCLUDE\ASIO\IMPL\ERROR_CODE.IPP
D:\PROJECTS\CMAKE HTTP FUNCTIONS\INCLUDE\ASIO-1.10.6\INCLUDE\ASIO\DETAIL\LOCAL_FREE_ON_BLOCK_EXIT.HPP
D:\PROJECTS\CMAKE HTTP FUNCTIONS\INCLUDE\ASIO-1.10.6\INCLUDE\ASIO\DETAIL\IMPL\THROW_ERROR.IPP
D:\PROJECTS\CMAKE HTTP FUNCTIONS\INCLUDE\ASIO-1.10.6\INCLUDE\ASIO\DETAIL\THROW_EXCEPTION.HPP
D:\PROJECTS\CMAKE HTTP FUNCTIONS\INCLUDE\ASIO-1.10.6\INCLUDE\ASIO\SYSTEM_ERROR.HPP
D:\PROJECTS\CMAKE HTTP FUNCTIONS\INCLUDE\ASIO-1.10.6\INCLUDE\ASIO\ERROR.HPP
D:\PROJECTS\CMAKE HTTP FUNCTIONS\INCLUDE\ASIO-1.10.6\INCLUDE\ASIO\IMPL\ERROR.IPP
D:\PROJECTS\CMAKE HTTP FUNCTIONS\INCLUDE\ASIO-1.10.6\INCLUDE\ASIO\DETAIL\WIN_IOCP_THREAD_INFO.HPP
D:\PROJECTS\CMAKE HTTP FUNCTIONS\INCLUDE\ASIO-1.10.6\INCLUDE\ASIO\DETAIL\THREAD_INFO_BASE.HPP
D:\PROJECTS\CMAKE HTTP FUNCTIONS\INCLUDE\ASIO-1.10.6\INCLUDE\ASIO\DETAIL\HANDLER_CONT_HELPERS.HPP
D:\PROJECTS\CMAKE HTTP FUNCTIONS\INCLUDE\ASIO-1.10.6\INCLUDE\ASIO\HANDLER_CONTINUATION_HOOK.HPP
D:\PROJECTS\CMAKE HTTP FUNCTIONS\INCLUDE\ASIO-1.10.6\INCLUDE\ASIO\DETAIL\HANDLER_INVOKE_HELPERS.HPP
D:\PROJECTS\CMAKE HTTP FUNCTIONS\INCLUDE\ASIO-1.10.6\INCLUDE\ASIO\HANDLER_INVOKE_HOOK.HPP
D:\PROJECTS\CMAKE HTTP FUNCTIONS\INCLUDE\ASIO-1.10.6\INCLUDE\ASIO\DETAIL\WINSOCK_INIT.HPP
D:\PROJECTS\CMAKE HTTP FUNCTIONS\INCLUDE\ASIO-1.10.6\INCLUDE\ASIO\DETAIL\IMPL\WINSOCK_INIT.IPP
D:\PROJECTS\CMAKE HTTP FUNCTIONS\INCLUDE\ASIO-1.10.6\INCLUDE\ASIO\IMPL\IO_SERVICE.HPP
D:\PROJECTS\CMAKE HTTP FUNCTIONS\INCLUDE\ASIO-1.10.6\INCLUDE\ASIO\DETAIL\HANDLER_TYPE_REQUIREMENTS.HPP
D:\PROJECTS\CMAKE HTTP FUNCTIONS\INCLUDE\ASIO-1.10.6\INCLUDE\ASIO\DETAIL\SERVICE_REGISTRY.HPP
D:\PROJECTS\CMAKE HTTP FUNCTIONS\INCLUDE\ASIO-1.10.6\INCLUDE\ASIO\DETAIL\MUTEX.HPP
D:\PROJECTS\CMAKE HTTP FUNCTIONS\INCLUDE\ASIO-1.10.6\INCLUDE\ASIO\DETAIL\WIN_MUTEX.HPP
D:\PROJECTS\CMAKE HTTP FUNCTIONS\INCLUDE\ASIO-1.10.6\INCLUDE\ASIO\DETAIL\SCOPED_LOCK.HPP
D:\PROJECTS\CMAKE HTTP FUNCTIONS\INCLUDE\ASIO-1.10.6\INCLUDE\ASIO\DETAIL\IMPL\WIN_MUTEX.IPP
D:\PROJECTS\CMAKE HTTP FUNCTIONS\INCLUDE\ASIO-1.10.6\INCLUDE\ASIO\DETAIL\IMPL\SERVICE_REGISTRY.HPP
D:\PROJECTS\CMAKE HTTP FUNCTIONS\INCLUDE\ASIO-1.10.6\INCLUDE\ASIO\DETAIL\IMPL\SERVICE_REGISTRY.IPP
C:\PROGRAM FILES (X86)\MICROSOFT VISUAL STUDIO\2017\COMMUNITY\VC\TOOLS\MSVC\14.10.25017\INCLUDE\VECTOR
D:\PROJECTS\CMAKE HTTP FUNCTIONS\INCLUDE\ASIO-1.10.6\INCLUDE\ASIO\DETAIL\WIN_IOCP_IO_SERVICE.HPP
D:\PROJECTS\CMAKE HTTP FUNCTIONS\INCLUDE\ASIO-1.10.6\INCLUDE\ASIO\DETAIL\LIMITS.HPP
D:\PROJECTS\CMAKE HTTP FUNCTIONS\INCLUDE\ASIO-1.10.6\INCLUDE\ASIO\DETAIL\OP_QUEUE.HPP
D:\PROJECTS\CMAKE HTTP FUNCTIONS\INCLUDE\ASIO-1.10.6\INCLUDE\ASIO\DETAIL\SCOPED_PTR.HPP
D:\PROJECTS\CMAKE HTTP FUNCTIONS\INCLUDE\ASIO-1.10.6\INCLUDE\ASIO\DETAIL\THREAD.HPP
D:\PROJECTS\CMAKE HTTP FUNCTIONS\INCLUDE\ASIO-1.10.6\INCLUDE\ASIO\DETAIL\WIN_THREAD.HPP
D:\PROJECTS\CMAKE HTTP FUNCTIONS\INCLUDE\ASIO-1.10.6\INCLUDE\ASIO\DETAIL\IMPL\WIN_THREAD.IPP
C:\PROGRAM FILES (X86)\WINDOWS KITS\10\INCLUDE\10.0.10240.0\UCRT\PROCESS.H
C:\PROGRAM FILES (X86)\WINDOWS KITS\10\INCLUDE\10.0.10240.0\UCRT\CORECRT_STARTUP.H
C:\PROGRAM FILES (X86)\MICROSOFT VISUAL STUDIO\2017\COMMUNITY\VC\TOOLS\MSVC\14.10.25017\INCLUDE\VCRUNTIME_STARTUP.H
D:\PROJECTS\CMAKE HTTP FUNCTIONS\INCLUDE\ASIO-1.10.6\INCLUDE\ASIO\DETAIL\TIMER_QUEUE_BASE.HPP
D:\PROJECTS\CMAKE HTTP FUNCTIONS\INCLUDE\ASIO-1.10.6\INCLUDE\ASIO\DETAIL\OPERATION.HPP
D:\PROJECTS\CMAKE HTTP FUNCTIONS\INCLUDE\ASIO-1.10.6\INCLUDE\ASIO\DETAIL\WIN_IOCP_OPERATION.HPP
D:\PROJECTS\CMAKE HTTP FUNCTIONS\INCLUDE\ASIO-1.10.6\INCLUDE\ASIO\DETAIL\HANDLER_TRACKING.HPP
D:\PROJECTS\CMAKE HTTP FUNCTIONS\INCLUDE\ASIO-1.10.6\INCLUDE\ASIO\DETAIL\IMPL\HANDLER_TRACKING.IPP
D:\PROJECTS\CMAKE HTTP FUNCTIONS\INCLUDE\ASIO-1.10.6\INCLUDE\ASIO\DETAIL\TIMER_QUEUE_SET.HPP
D:\PROJECTS\CMAKE HTTP FUNCTIONS\INCLUDE\ASIO-1.10.6\INCLUDE\ASIO\DETAIL\IMPL\TIMER_QUEUE_SET.IPP
D:\PROJECTS\CMAKE HTTP FUNCTIONS\INCLUDE\ASIO-1.10.6\INCLUDE\ASIO\DETAIL\WAIT_OP.HPP
D:\PROJECTS\CMAKE HTTP FUNCTIONS\INCLUDE\ASIO-1.10.6\INCLUDE\ASIO\DETAIL\IMPL\WIN_IOCP_IO_SERVICE.HPP
D:\PROJECTS\CMAKE HTTP FUNCTIONS\INCLUDE\ASIO-1.10.6\INCLUDE\ASIO\DETAIL\COMPLETION_HANDLER.HPP
D:\PROJECTS\CMAKE HTTP FUNCTIONS\INCLUDE\ASIO-1.10.6\INCLUDE\ASIO\DETAIL\FENCED_BLOCK.HPP
D:\PROJECTS\CMAKE HTTP FUNCTIONS\INCLUDE\ASIO-1.10.6\INCLUDE\ASIO\DETAIL\WIN_FENCED_BLOCK.HPP
D:\PROJECTS\CMAKE HTTP FUNCTIONS\INCLUDE\ASIO-1.10.6\INCLUDE\ASIO\DETAIL\IMPL\WIN_IOCP_IO_SERVICE.IPP
D:\PROJECTS\CMAKE HTTP FUNCTIONS\INCLUDE\ASIO-1.10.6\INCLUDE\ASIO\DETAIL\CSTDINT.HPP
D:\PROJECTS\CMAKE HTTP FUNCTIONS\INCLUDE\ASIO-1.10.6\INCLUDE\ASIO\IMPL\IO_SERVICE.IPP
D:\PROJECTS\CMAKE HTTP FUNCTIONS\INCLUDE\ASIO-1.10.6\INCLUDE\ASIO\DETAIL\TYPE_TRAITS.HPP
D:\PROJECTS\CMAKE HTTP FUNCTIONS\INCLUDE\ASIO-1.10.6\INCLUDE\ASIO\SOCKET_BASE.HPP
D:\PROJECTS\CMAKE HTTP FUNCTIONS\INCLUDE\ASIO-1.10.6\INCLUDE\ASIO\DETAIL\IO_CONTROL.HPP
D:\PROJECTS\CMAKE HTTP FUNCTIONS\INCLUDE\ASIO-1.10.6\INCLUDE\ASIO\DETAIL\SOCKET_OPTION.HPP
D:\PROJECTS\CMAKE HTTP FUNCTIONS\INCLUDE\ASIO-1.10.6\INCLUDE\ASIO\DATAGRAM_SOCKET_SERVICE.HPP
D:\PROJECTS\CMAKE HTTP FUNCTIONS\INCLUDE\ASIO-1.10.6\INCLUDE\ASIO\DETAIL\WIN_IOCP_SOCKET_SERVICE.HPP
D:\PROJECTS\CMAKE HTTP FUNCTIONS\INCLUDE\ASIO-1.10.6\INCLUDE\ASIO\DETAIL\BUFFER_SEQUENCE_ADAPTER.HPP
D:\PROJECTS\CMAKE HTTP FUNCTIONS\INCLUDE\ASIO-1.10.6\INCLUDE\ASIO\BUFFER.HPP
D:\PROJECTS\CMAKE HTTP FUNCTIONS\INCLUDE\ASIO-1.10.6\INCLUDE\ASIO\DETAIL\ARRAY_FWD.HPP
C:\PROGRAM FILES (X86)\MICROSOFT VISUAL STUDIO\2017\COMMUNITY\VC\TOOLS\MSVC\14.10.25017\INCLUDE\ARRAY
C:\PROGRAM FILES (X86)\MICROSOFT VISUAL STUDIO\2017\COMMUNITY\VC\TOOLS\MSVC\14.10.25017\INCLUDE\ALGORITHM
C:\PROGRAM FILES (X86)\MICROSOFT VISUAL STUDIO\2017\COMMUNITY\VC\TOOLS\MSVC\14.10.25017\INCLUDE\ITERATOR
D:\PROJECTS\CMAKE HTTP FUNCTIONS\INCLUDE\ASIO-1.10.6\INCLUDE\ASIO\DETAIL\FUNCTION.HPP
C:\PROGRAM FILES (X86)\MICROSOFT VISUAL STUDIO\2017\COMMUNITY\VC\TOOLS\MSVC\14.10.25017\INCLUDE\FUNCTIONAL
C:\PROGRAM FILES (X86)\MICROSOFT VISUAL STUDIO\2017\COMMUNITY\VC\TOOLS\MSVC\14.10.25017\INCLUDE\XFUNCTIONAL
D:\PROJECTS\CMAKE HTTP FUNCTIONS\INCLUDE\ASIO-1.10.6\INCLUDE\ASIO\DETAIL\IMPL\BUFFER_SEQUENCE_ADAPTER.IPP
D:\PROJECTS\CMAKE HTTP FUNCTIONS\INCLUDE\ASIO-1.10.6\INCLUDE\ASIO\DETAIL\REACTOR.HPP
D:\PROJECTS\CMAKE HTTP FUNCTIONS\INCLUDE\ASIO-1.10.6\INCLUDE\ASIO\DETAIL\REACTOR_FWD.HPP
D:\PROJECTS\CMAKE HTTP FUNCTIONS\INCLUDE\ASIO-1.10.6\INCLUDE\ASIO\DETAIL\SELECT_REACTOR.HPP
D:\PROJECTS\CMAKE HTTP FUNCTIONS\INCLUDE\ASIO-1.10.6\INCLUDE\ASIO\DETAIL\FD_SET_ADAPTER.HPP
D:\PROJECTS\CMAKE HTTP FUNCTIONS\INCLUDE\ASIO-1.10.6\INCLUDE\ASIO\DETAIL\POSIX_FD_SET_ADAPTER.HPP
D:\PROJECTS\CMAKE HTTP FUNCTIONS\INCLUDE\ASIO-1.10.6\INCLUDE\ASIO\DETAIL\WIN_FD_SET_ADAPTER.HPP
D:\PROJECTS\CMAKE HTTP FUNCTIONS\INCLUDE\ASIO-1.10.6\INCLUDE\ASIO\DETAIL\REACTOR_OP_QUEUE.HPP
D:\PROJECTS\CMAKE HTTP FUNCTIONS\INCLUDE\ASIO-1.10.6\INCLUDE\ASIO\DETAIL\HASH_MAP.HPP
C:\PROGRAM FILES (X86)\MICROSOFT VISUAL STUDIO\2017\COMMUNITY\VC\TOOLS\MSVC\14.10.25017\INCLUDE\LIST
D:\PROJECTS\CMAKE HTTP FUNCTIONS\INCLUDE\ASIO-1.10.6\INCLUDE\ASIO\DETAIL\ASSERT.HPP
C:\PROGRAM FILES (X86)\MICROSOFT VISUAL STUDIO\2017\COMMUNITY\VC\TOOLS\MSVC\14.10.25017\INCLUDE\CASSERT
C:\PROGRAM FILES (X86)\WINDOWS KITS\10\INCLUDE\10.0.10240.0\UCRT\ASSERT.H
D:\PROJECTS\CMAKE HTTP FUNCTIONS\INCLUDE\ASIO-1.10.6\INCLUDE\ASIO\DETAIL\REACTOR_OP.HPP
D:\PROJECTS\CMAKE HTTP FUNCTIONS\INCLUDE\ASIO-1.10.6\INCLUDE\ASIO\DETAIL\SELECT_INTERRUPTER.HPP
D:\PROJECTS\CMAKE HTTP FUNCTIONS\INCLUDE\ASIO-1.10.6\INCLUDE\ASIO\DETAIL\SOCKET_SELECT_INTERRUPTER.HPP
D:\PROJECTS\CMAKE HTTP FUNCTIONS\INCLUDE\ASIO-1.10.6\INCLUDE\ASIO\DETAIL\IMPL\SOCKET_SELECT_INTERRUPTER.IPP
D:\PROJECTS\CMAKE HTTP FUNCTIONS\INCLUDE\ASIO-1.10.6\INCLUDE\ASIO\DETAIL\SOCKET_HOLDER.HPP
D:\PROJECTS\CMAKE HTTP FUNCTIONS\INCLUDE\ASIO-1.10.6\INCLUDE\ASIO\DETAIL\SOCKET_OPS.HPP
D:\PROJECTS\CMAKE HTTP FUNCTIONS\INCLUDE\ASIO-1.10.6\INCLUDE\ASIO\DETAIL\SHARED_PTR.HPP
D:\PROJECTS\CMAKE HTTP FUNCTIONS\INCLUDE\ASIO-1.10.6\INCLUDE\ASIO\DETAIL\WEAK_PTR.HPP
D:\PROJECTS\CMAKE HTTP FUNCTIONS\INCLUDE\ASIO-1.10.6\INCLUDE\ASIO\DETAIL\IMPL\SOCKET_OPS.IPP
C:\PROGRAM FILES (X86)\MICROSOFT VISUAL STUDIO\2017\COMMUNITY\VC\TOOLS\MSVC\14.10.25017\INCLUDE\CCTYPE
D:\PROJECTS\CMAKE HTTP FUNCTIONS\INCLUDE\ASIO-1.10.6\INCLUDE\ASIO\DETAIL\IMPL\SELECT_REACTOR.HPP
D:\PROJECTS\CMAKE HTTP FUNCTIONS\INCLUDE\ASIO-1.10.6\INCLUDE\ASIO\DETAIL\IMPL\SELECT_REACTOR.IPP
D:\PROJECTS\CMAKE HTTP FUNCTIONS\INCLUDE\ASIO-1.10.6\INCLUDE\ASIO\DETAIL\SIGNAL_BLOCKER.HPP
D:\PROJECTS\CMAKE HTTP FUNCTIONS\INCLUDE\ASIO-1.10.6\INCLUDE\ASIO\DETAIL\NULL_SIGNAL_BLOCKER.HPP
D:\PROJECTS\CMAKE HTTP FUNCTIONS\INCLUDE\ASIO-1.10.6\INCLUDE\ASIO\DETAIL\WIN_IOCP_NULL_BUFFERS_OP.HPP
D:\PROJECTS\CMAKE HTTP FUNCTIONS\INCLUDE\ASIO-1.10.6\INCLUDE\ASIO\DETAIL\WIN_IOCP_SOCKET_ACCEPT_OP.HPP
D:\PROJECTS\CMAKE HTTP FUNCTIONS\INCLUDE\ASIO-1.10.6\INCLUDE\ASIO\DETAIL\WIN_IOCP_SOCKET_SERVICE_BASE.HPP
D:\PROJECTS\CMAKE HTTP FUNCTIONS\INCLUDE\ASIO-1.10.6\INCLUDE\ASIO\DETAIL\WIN_IOCP_SOCKET_CONNECT_OP.HPP
D:\PROJECTS\CMAKE HTTP FUNCTIONS\INCLUDE\ASIO-1.10.6\INCLUDE\ASIO\DETAIL\WIN_IOCP_SOCKET_SEND_OP.HPP
D:\PROJECTS\CMAKE HTTP FUNCTIONS\INCLUDE\ASIO-1.10.6\INCLUDE\ASIO\DETAIL\WIN_IOCP_SOCKET_RECV_OP.HPP
D:\PROJECTS\CMAKE HTTP FUNCTIONS\INCLUDE\ASIO-1.10.6\INCLUDE\ASIO\DETAIL\WIN_IOCP_SOCKET_RECVMSG_OP.HPP
D:\PROJECTS\CMAKE HTTP FUNCTIONS\INCLUDE\ASIO-1.10.6\INCLUDE\ASIO\DETAIL\IMPL\WIN_IOCP_SOCKET_SERVICE_BASE.IPP
D:\PROJECTS\CMAKE HTTP FUNCTIONS\INCLUDE\ASIO-1.10.6\INCLUDE\ASIO\DETAIL\WIN_IOCP_SOCKET_RECVFROM_OP.HPP
D:\PROJECTS\CMAKE HTTP FUNCTIONS\INCLUDE\ASIO-1.10.6\INCLUDE\ASIO\BASIC_DEADLINE_TIMER.HPP
D:\PROJECTS\CMAKE HTTP FUNCTIONS\INCLUDE\ASIO-1.10.6\INCLUDE\ASIO\BASIC_RAW_SOCKET.HPP
D:\PROJECTS\CMAKE HTTP FUNCTIONS\INCLUDE\ASIO-1.10.6\INCLUDE\ASIO\RAW_SOCKET_SERVICE.HPP
D:\PROJECTS\CMAKE HTTP FUNCTIONS\INCLUDE\ASIO-1.10.6\INCLUDE\ASIO\BASIC_SEQ_PACKET_SOCKET.HPP
D:\PROJECTS\CMAKE HTTP FUNCTIONS\INCLUDE\ASIO-1.10.6\INCLUDE\ASIO\SEQ_PACKET_SOCKET_SERVICE.HPP
D:\PROJECTS\CMAKE HTTP FUNCTIONS\INCLUDE\ASIO-1.10.6\INCLUDE\ASIO\BASIC_SERIAL_PORT.HPP
D:\PROJECTS\CMAKE HTTP FUNCTIONS\INCLUDE\ASIO-1.10.6\INCLUDE\ASIO\SERIAL_PORT_BASE.HPP
D:\PROJECTS\CMAKE HTTP FUNCTIONS\INCLUDE\ASIO-1.10.6\INCLUDE\ASIO\IMPL\SERIAL_PORT_BASE.HPP
D:\PROJECTS\CMAKE HTTP FUNCTIONS\INCLUDE\ASIO-1.10.6\INCLUDE\ASIO\IMPL\SERIAL_PORT_BASE.IPP
D:\PROJECTS\CMAKE HTTP FUNCTIONS\INCLUDE\ASIO-1.10.6\INCLUDE\ASIO\SERIAL_PORT_SERVICE.HPP
D:\PROJECTS\CMAKE HTTP FUNCTIONS\INCLUDE\ASIO-1.10.6\INCLUDE\ASIO\DETAIL\REACTIVE_SERIAL_PORT_SERVICE.HPP
D:\PROJECTS\CMAKE HTTP FUNCTIONS\INCLUDE\ASIO-1.10.6\INCLUDE\ASIO\DETAIL\WIN_IOCP_SERIAL_PORT_SERVICE.HPP
D:\PROJECTS\CMAKE HTTP FUNCTIONS\INCLUDE\ASIO-1.10.6\INCLUDE\ASIO\DETAIL\WIN_IOCP_HANDLE_SERVICE.HPP
D:\PROJECTS\CMAKE HTTP FUNCTIONS\INCLUDE\ASIO-1.10.6\INCLUDE\ASIO\DETAIL\WIN_IOCP_HANDLE_READ_OP.HPP
D:\PROJECTS\CMAKE HTTP FUNCTIONS\INCLUDE\ASIO-1.10.6\INCLUDE\ASIO\DETAIL\WIN_IOCP_HANDLE_WRITE_OP.HPP
D:\PROJECTS\CMAKE HTTP FUNCTIONS\INCLUDE\ASIO-1.10.6\INCLUDE\ASIO\DETAIL\IMPL\WIN_IOCP_HANDLE_SERVICE.IPP
D:\PROJECTS\CMAKE HTTP FUNCTIONS\INCLUDE\ASIO-1.10.6\INCLUDE\ASIO\DETAIL\IMPL\WIN_IOCP_SERIAL_PORT_SERVICE.IPP
D:\PROJECTS\CMAKE HTTP FUNCTIONS\INCLUDE\ASIO-1.10.6\INCLUDE\ASIO\BASIC_SIGNAL_SET.HPP
D:\PROJECTS\CMAKE HTTP FUNCTIONS\INCLUDE\ASIO-1.10.6\INCLUDE\ASIO\SIGNAL_SET_SERVICE.HPP
D:\PROJECTS\CMAKE HTTP FUNCTIONS\INCLUDE\ASIO-1.10.6\INCLUDE\ASIO\DETAIL\SIGNAL_SET_SERVICE.HPP
C:\PROGRAM FILES (X86)\WINDOWS KITS\10\INCLUDE\10.0.10240.0\UCRT\SIGNAL.H
D:\PROJECTS\CMAKE HTTP FUNCTIONS\INCLUDE\ASIO-1.10.6\INCLUDE\ASIO\DETAIL\SIGNAL_HANDLER.HPP
D:\PROJECTS\CMAKE HTTP FUNCTIONS\INCLUDE\ASIO-1.10.6\INCLUDE\ASIO\DETAIL\SIGNAL_OP.HPP
D:\PROJECTS\CMAKE HTTP FUNCTIONS\INCLUDE\ASIO-1.10.6\INCLUDE\ASIO\DETAIL\IMPL\SIGNAL_SET_SERVICE.IPP
D:\PROJECTS\CMAKE HTTP FUNCTIONS\INCLUDE\ASIO-1.10.6\INCLUDE\ASIO\DETAIL\STATIC_MUTEX.HPP
D:\PROJECTS\CMAKE HTTP FUNCTIONS\INCLUDE\ASIO-1.10.6\INCLUDE\ASIO\DETAIL\WIN_STATIC_MUTEX.HPP
D:\PROJECTS\CMAKE HTTP FUNCTIONS\INCLUDE\ASIO-1.10.6\INCLUDE\ASIO\DETAIL\IMPL\WIN_STATIC_MUTEX.IPP
D:\PROJECTS\CMAKE HTTP FUNCTIONS\INCLUDE\ASIO-1.10.6\INCLUDE\ASIO\BASIC_SOCKET_ACCEPTOR.HPP
D:\PROJECTS\CMAKE HTTP FUNCTIONS\INCLUDE\ASIO-1.10.6\INCLUDE\ASIO\SOCKET_ACCEPTOR_SERVICE.HPP
D:\PROJECTS\CMAKE HTTP FUNCTIONS\INCLUDE\ASIO-1.10.6\INCLUDE\ASIO\BASIC_SOCKET_IOSTREAM.HPP
D:\PROJECTS\CMAKE HTTP FUNCTIONS\INCLUDE\ASIO-1.10.6\INCLUDE\ASIO\BASIC_SOCKET_STREAMBUF.HPP
D:\PROJECTS\CMAKE HTTP FUNCTIONS\INCLUDE\ASIO-1.10.6\INCLUDE\ASIO\DEADLINE_TIMER_SERVICE.HPP
D:\PROJECTS\CMAKE HTTP FUNCTIONS\INCLUDE\ASIO-1.10.6\INCLUDE\ASIO\DETAIL\ARRAY.HPP
D:\PROJECTS\CMAKE HTTP FUNCTIONS\INCLUDE\ASIO-1.10.6\INCLUDE\ASIO\STREAM_SOCKET_SERVICE.HPP
D:\PROJECTS\CMAKE HTTP FUNCTIONS\INCLUDE\ASIO-1.10.6\INCLUDE\ASIO\STEADY_TIMER.HPP
C:\PROGRAM FILES (X86)\MICROSOFT VISUAL STUDIO\2017\COMMUNITY\VC\TOOLS\MSVC\14.10.25017\INCLUDE\CHRONO
C:\PROGRAM FILES (X86)\MICROSOFT VISUAL STUDIO\2017\COMMUNITY\VC\TOOLS\MSVC\14.10.25017\INCLUDE\RATIO
C:\PROGRAM FILES (X86)\WINDOWS KITS\10\INCLUDE\10.0.10240.0\UCRT\TIME.H
C:\PROGRAM FILES (X86)\MICROSOFT VISUAL STUDIO\2017\COMMUNITY\VC\TOOLS\MSVC\14.10.25017\INCLUDE\THR\XTIMEC.H
C:\PROGRAM FILES (X86)\MICROSOFT VISUAL STUDIO\2017\COMMUNITY\VC\TOOLS\MSVC\14.10.25017\INCLUDE\THR\XTHRCOMMON.H
D:\PROJECTS\CMAKE HTTP FUNCTIONS\INCLUDE\ASIO-1.10.6\INCLUDE\ASIO\BASIC_WAITABLE_TIMER.HPP
D:\PROJECTS\CMAKE HTTP FUNCTIONS\INCLUDE\ASIO-1.10.6\INCLUDE\ASIO\WAIT_TRAITS.HPP
D:\PROJECTS\CMAKE HTTP FUNCTIONS\INCLUDE\ASIO-1.10.6\INCLUDE\ASIO\WAITABLE_TIMER_SERVICE.HPP
D:\PROJECTS\CMAKE HTTP FUNCTIONS\INCLUDE\ASIO-1.10.6\INCLUDE\ASIO\DETAIL\CHRONO_TIME_TRAITS.HPP
D:\PROJECTS\CMAKE HTTP FUNCTIONS\INCLUDE\ASIO-1.10.6\INCLUDE\ASIO\DETAIL\DEADLINE_TIMER_SERVICE.HPP
D:\PROJECTS\CMAKE HTTP FUNCTIONS\INCLUDE\ASIO-1.10.6\INCLUDE\ASIO\DETAIL\TIMER_QUEUE.HPP
D:\PROJECTS\CMAKE HTTP FUNCTIONS\INCLUDE\ASIO-1.10.6\INCLUDE\ASIO\DETAIL\DATE_TIME_FWD.HPP
D:\PROJECTS\CMAKE HTTP FUNCTIONS\INCLUDE\ASIO-1.10.6\INCLUDE\ASIO\DETAIL\TIMER_SCHEDULER.HPP
D:\PROJECTS\CMAKE HTTP FUNCTIONS\INCLUDE\ASIO-1.10.6\INCLUDE\ASIO\DETAIL\TIMER_SCHEDULER_FWD.HPP
D:\PROJECTS\CMAKE HTTP FUNCTIONS\INCLUDE\ASIO-1.10.6\INCLUDE\ASIO\DETAIL\WAIT_HANDLER.HPP
D:\PROJECTS\CMAKE HTTP FUNCTIONS\INCLUDE\ASIO-1.10.6\INCLUDE\ASIO\DETAIL\VARIADIC_TEMPLATES.HPP
D:\PROJECTS\CMAKE HTTP FUNCTIONS\INCLUDE\ASIO-1.10.6\INCLUDE\ASIO\BASIC_STREAM_SOCKET.HPP
D:\PROJECTS\CMAKE HTTP FUNCTIONS\INCLUDE\ASIO-1.10.6\INCLUDE\ASIO\BASIC_STREAMBUF.HPP
D:\PROJECTS\CMAKE HTTP FUNCTIONS\INCLUDE\ASIO-1.10.6\INCLUDE\ASIO\BASIC_STREAMBUF_FWD.HPP
D:\PROJECTS\CMAKE HTTP FUNCTIONS\INCLUDE\ASIO-1.10.6\INCLUDE\ASIO\BUFFERED_READ_STREAM_FWD.HPP
D:\PROJECTS\CMAKE HTTP FUNCTIONS\INCLUDE\ASIO-1.10.6\INCLUDE\ASIO\BUFFERED_READ_STREAM.HPP
D:\PROJECTS\CMAKE HTTP FUNCTIONS\INCLUDE\ASIO-1.10.6\INCLUDE\ASIO\DETAIL\BUFFER_RESIZE_GUARD.HPP
D:\PROJECTS\CMAKE HTTP FUNCTIONS\INCLUDE\ASIO-1.10.6\INCLUDE\ASIO\DETAIL\BUFFERED_STREAM_STORAGE.HPP
D:\PROJECTS\CMAKE HTTP FUNCTIONS\INCLUDE\ASIO-1.10.6\INCLUDE\ASIO\IMPL\BUFFERED_READ_STREAM.HPP
D:\PROJECTS\CMAKE HTTP FUNCTIONS\INCLUDE\ASIO-1.10.6\INCLUDE\ASIO\BUFFERED_STREAM_FWD.HPP
D:\PROJECTS\CMAKE HTTP FUNCTIONS\INCLUDE\ASIO-1.10.6\INCLUDE\ASIO\BUFFERED_STREAM.HPP
D:\PROJECTS\CMAKE HTTP FUNCTIONS\INCLUDE\ASIO-1.10.6\INCLUDE\ASIO\BUFFERED_WRITE_STREAM.HPP
D:\PROJECTS\CMAKE HTTP FUNCTIONS\INCLUDE\ASIO-1.10.6\INCLUDE\ASIO\BUFFERED_WRITE_STREAM_FWD.HPP
D:\PROJECTS\CMAKE HTTP FUNCTIONS\INCLUDE\ASIO-1.10.6\INCLUDE\ASIO\COMPLETION_CONDITION.HPP
D:\PROJECTS\CMAKE HTTP FUNCTIONS\INCLUDE\ASIO-1.10.6\INCLUDE\ASIO\WRITE.HPP
D:\PROJECTS\CMAKE HTTP FUNCTIONS\INCLUDE\ASIO-1.10.6\INCLUDE\ASIO\IMPL\WRITE.HPP
D:\PROJECTS\CMAKE HTTP FUNCTIONS\INCLUDE\ASIO-1.10.6\INCLUDE\ASIO\DETAIL\BASE_FROM_COMPLETION_COND.HPP
D:\PROJECTS\CMAKE HTTP FUNCTIONS\INCLUDE\ASIO-1.10.6\INCLUDE\ASIO\DETAIL\CONSUMING_BUFFERS.HPP
D:\PROJECTS\CMAKE HTTP FUNCTIONS\INCLUDE\ASIO-1.10.6\INCLUDE\ASIO\DETAIL\DEPENDENT_TYPE.HPP
D:\PROJECTS\CMAKE HTTP FUNCTIONS\INCLUDE\ASIO-1.10.6\INCLUDE\ASIO\IMPL\BUFFERED_WRITE_STREAM.HPP
D:\PROJECTS\CMAKE HTTP FUNCTIONS\INCLUDE\ASIO-1.10.6\INCLUDE\ASIO\BUFFERS_ITERATOR.HPP
D:\PROJECTS\CMAKE HTTP FUNCTIONS\INCLUDE\ASIO-1.10.6\INCLUDE\ASIO\CONNECT.HPP
D:\PROJECTS\CMAKE HTTP FUNCTIONS\INCLUDE\ASIO-1.10.6\INCLUDE\ASIO\IMPL\CONNECT.HPP
D:\PROJECTS\CMAKE HTTP FUNCTIONS\INCLUDE\ASIO-1.10.6\INCLUDE\ASIO\COROUTINE.HPP
D:\PROJECTS\CMAKE HTTP FUNCTIONS\INCLUDE\ASIO-1.10.6\INCLUDE\ASIO\DEADLINE_TIMER.HPP
D:\PROJECTS\CMAKE HTTP FUNCTIONS\INCLUDE\ASIO-1.10.6\INCLUDE\ASIO\GENERIC\BASIC_ENDPOINT.HPP
D:\PROJECTS\CMAKE HTTP FUNCTIONS\INCLUDE\ASIO-1.10.6\INCLUDE\ASIO\GENERIC\DETAIL\ENDPOINT.HPP
D:\PROJECTS\CMAKE HTTP FUNCTIONS\INCLUDE\ASIO-1.10.6\INCLUDE\ASIO\GENERIC\DETAIL\IMPL\ENDPOINT.IPP
D:\PROJECTS\CMAKE HTTP FUNCTIONS\INCLUDE\ASIO-1.10.6\INCLUDE\ASIO\GENERIC\DATAGRAM_PROTOCOL.HPP
D:\PROJECTS\CMAKE HTTP FUNCTIONS\INCLUDE\ASIO-1.10.6\INCLUDE\ASIO\GENERIC\RAW_PROTOCOL.HPP
D:\PROJECTS\CMAKE HTTP FUNCTIONS\INCLUDE\ASIO-1.10.6\INCLUDE\ASIO\GENERIC\SEQ_PACKET_PROTOCOL.HPP
D:\PROJECTS\CMAKE HTTP FUNCTIONS\INCLUDE\ASIO-1.10.6\INCLUDE\ASIO\GENERIC\STREAM_PROTOCOL.HPP
D:\PROJECTS\CMAKE HTTP FUNCTIONS\INCLUDE\ASIO-1.10.6\INCLUDE\ASIO\IP\ADDRESS.HPP
D:\PROJECTS\CMAKE HTTP FUNCTIONS\INCLUDE\ASIO-1.10.6\INCLUDE\ASIO\IP\ADDRESS_V4.HPP
D:\PROJECTS\CMAKE HTTP FUNCTIONS\INCLUDE\ASIO-1.10.6\INCLUDE\ASIO\IP\IMPL\ADDRESS_V4.HPP
D:\PROJECTS\CMAKE HTTP FUNCTIONS\INCLUDE\ASIO-1.10.6\INCLUDE\ASIO\IP\IMPL\ADDRESS_V4.IPP
D:\PROJECTS\CMAKE HTTP FUNCTIONS\INCLUDE\ASIO-1.10.6\INCLUDE\ASIO\IP\ADDRESS_V6.HPP
D:\PROJECTS\CMAKE HTTP FUNCTIONS\INCLUDE\ASIO-1.10.6\INCLUDE\ASIO\IP\IMPL\ADDRESS_V6.HPP
D:\PROJECTS\CMAKE HTTP FUNCTIONS\INCLUDE\ASIO-1.10.6\INCLUDE\ASIO\IP\IMPL\ADDRESS_V6.IPP
D:\PROJECTS\CMAKE HTTP FUNCTIONS\INCLUDE\ASIO-1.10.6\INCLUDE\ASIO\IP\IMPL\ADDRESS.HPP
D:\PROJECTS\CMAKE HTTP FUNCTIONS\INCLUDE\ASIO-1.10.6\INCLUDE\ASIO\IP\IMPL\ADDRESS.IPP
D:\PROJECTS\CMAKE HTTP FUNCTIONS\INCLUDE\ASIO-1.10.6\INCLUDE\ASIO\IP\BASIC_ENDPOINT.HPP
D:\PROJECTS\CMAKE HTTP FUNCTIONS\INCLUDE\ASIO-1.10.6\INCLUDE\ASIO\IP\DETAIL\ENDPOINT.HPP
D:\PROJECTS\CMAKE HTTP FUNCTIONS\INCLUDE\ASIO-1.10.6\INCLUDE\ASIO\IP\DETAIL\IMPL\ENDPOINT.IPP
C:\PROGRAM FILES (X86)\MICROSOFT VISUAL STUDIO\2017\COMMUNITY\VC\TOOLS\MSVC\14.10.25017\INCLUDE\SSTREAM
D:\PROJECTS\CMAKE HTTP FUNCTIONS\INCLUDE\ASIO-1.10.6\INCLUDE\ASIO\IP\IMPL\BASIC_ENDPOINT.HPP
D:\PROJECTS\CMAKE HTTP FUNCTIONS\INCLUDE\ASIO-1.10.6\INCLUDE\ASIO\IP\BASIC_RESOLVER.HPP
D:\PROJECTS\CMAKE HTTP FUNCTIONS\INCLUDE\ASIO-1.10.6\INCLUDE\ASIO\IP\BASIC_RESOLVER_ITERATOR.HPP
D:\PROJECTS\CMAKE HTTP FUNCTIONS\INCLUDE\ASIO-1.10.6\INCLUDE\ASIO\IP\BASIC_RESOLVER_ENTRY.HPP
D:\PROJECTS\CMAKE HTTP FUNCTIONS\INCLUDE\ASIO-1.10.6\INCLUDE\ASIO\IP\BASIC_RESOLVER_QUERY.HPP
D:\PROJECTS\CMAKE HTTP FUNCTIONS\INCLUDE\ASIO-1.10.6\INCLUDE\ASIO\IP\RESOLVER_QUERY_BASE.HPP
D:\PROJECTS\CMAKE HTTP FUNCTIONS\INCLUDE\ASIO-1.10.6\INCLUDE\ASIO\IP\RESOLVER_SERVICE.HPP
D:\PROJECTS\CMAKE HTTP FUNCTIONS\INCLUDE\ASIO-1.10.6\INCLUDE\ASIO\DETAIL\RESOLVER_SERVICE.HPP
D:\PROJECTS\CMAKE HTTP FUNCTIONS\INCLUDE\ASIO-1.10.6\INCLUDE\ASIO\DETAIL\RESOLVE_ENDPOINT_OP.HPP
D:\PROJECTS\CMAKE HTTP FUNCTIONS\INCLUDE\ASIO-1.10.6\INCLUDE\ASIO\DETAIL\RESOLVE_OP.HPP
D:\PROJECTS\CMAKE HTTP FUNCTIONS\INCLUDE\ASIO-1.10.6\INCLUDE\ASIO\DETAIL\RESOLVER_SERVICE_BASE.HPP
D:\PROJECTS\CMAKE HTTP FUNCTIONS\INCLUDE\ASIO-1.10.6\INCLUDE\ASIO\DETAIL\IMPL\RESOLVER_SERVICE_BASE.IPP
D:\PROJECTS\CMAKE HTTP FUNCTIONS\INCLUDE\ASIO-1.10.6\INCLUDE\ASIO\IP\HOST_NAME.HPP
D:\PROJECTS\CMAKE HTTP FUNCTIONS\INCLUDE\ASIO-1.10.6\INCLUDE\ASIO\IP\IMPL\HOST_NAME.IPP
D:\PROJECTS\CMAKE HTTP FUNCTIONS\INCLUDE\ASIO-1.10.6\INCLUDE\ASIO\IP\ICMP.HPP
D:\PROJECTS\CMAKE HTTP FUNCTIONS\INCLUDE\ASIO-1.10.6\INCLUDE\ASIO\IP\MULTICAST.HPP
D:\PROJECTS\CMAKE HTTP FUNCTIONS\INCLUDE\ASIO-1.10.6\INCLUDE\ASIO\IP\DETAIL\SOCKET_OPTION.HPP
D:\PROJECTS\CMAKE HTTP FUNCTIONS\INCLUDE\ASIO-1.10.6\INCLUDE\ASIO\IP\TCP.HPP
D:\PROJECTS\CMAKE HTTP FUNCTIONS\INCLUDE\ASIO-1.10.6\INCLUDE\ASIO\IP\UDP.HPP
D:\PROJECTS\CMAKE HTTP FUNCTIONS\INCLUDE\ASIO-1.10.6\INCLUDE\ASIO\IP\UNICAST.HPP
D:\PROJECTS\CMAKE HTTP FUNCTIONS\INCLUDE\ASIO-1.10.6\INCLUDE\ASIO\IP\V6_ONLY.HPP
D:\PROJECTS\CMAKE HTTP FUNCTIONS\INCLUDE\ASIO-1.10.6\INCLUDE\ASIO\IS_READ_BUFFERED.HPP
D:\PROJECTS\CMAKE HTTP FUNCTIONS\INCLUDE\ASIO-1.10.6\INCLUDE\ASIO\IS_WRITE_BUFFERED.HPP
D:\PROJECTS\CMAKE HTTP FUNCTIONS\INCLUDE\ASIO-1.10.6\INCLUDE\ASIO\LOCAL\BASIC_ENDPOINT.HPP
D:\PROJECTS\CMAKE HTTP FUNCTIONS\INCLUDE\ASIO-1.10.6\INCLUDE\ASIO\LOCAL\CONNECT_PAIR.HPP
D:\PROJECTS\CMAKE HTTP FUNCTIONS\INCLUDE\ASIO-1.10.6\INCLUDE\ASIO\LOCAL\DATAGRAM_PROTOCOL.HPP
D:\PROJECTS\CMAKE HTTP FUNCTIONS\INCLUDE\ASIO-1.10.6\INCLUDE\ASIO\LOCAL\STREAM_PROTOCOL.HPP
D:\PROJECTS\CMAKE HTTP FUNCTIONS\INCLUDE\ASIO-1.10.6\INCLUDE\ASIO\PLACEHOLDERS.HPP
D:\PROJECTS\CMAKE HTTP FUNCTIONS\INCLUDE\ASIO-1.10.6\INCLUDE\ASIO\POSIX\BASIC_DESCRIPTOR.HPP
D:\PROJECTS\CMAKE HTTP FUNCTIONS\INCLUDE\ASIO-1.10.6\INCLUDE\ASIO\POSIX\BASIC_STREAM_DESCRIPTOR.HPP
D:\PROJECTS\CMAKE HTTP FUNCTIONS\INCLUDE\ASIO-1.10.6\INCLUDE\ASIO\POSIX\DESCRIPTOR_BASE.HPP
D:\PROJECTS\CMAKE HTTP FUNCTIONS\INCLUDE\ASIO-1.10.6\INCLUDE\ASIO\POSIX\STREAM_DESCRIPTOR.HPP
D:\PROJECTS\CMAKE HTTP FUNCTIONS\INCLUDE\ASIO-1.10.6\INCLUDE\ASIO\POSIX\STREAM_DESCRIPTOR_SERVICE.HPP
D:\PROJECTS\CMAKE HTTP FUNCTIONS\INCLUDE\ASIO-1.10.6\INCLUDE\ASIO\READ.HPP
D:\PROJECTS\CMAKE HTTP FUNCTIONS\INCLUDE\ASIO-1.10.6\INCLUDE\ASIO\IMPL\READ.HPP
D:\PROJECTS\CMAKE HTTP FUNCTIONS\INCLUDE\ASIO-1.10.6\INCLUDE\ASIO\READ_AT.HPP
D:\PROJECTS\CMAKE HTTP FUNCTIONS\INCLUDE\ASIO-1.10.6\INCLUDE\ASIO\IMPL\READ_AT.HPP
D:\PROJECTS\CMAKE HTTP FUNCTIONS\INCLUDE\ASIO-1.10.6\INCLUDE\ASIO\READ_UNTIL.HPP
D:\PROJECTS\CMAKE HTTP FUNCTIONS\INCLUDE\ASIO-1.10.6\INCLUDE\ASIO\DETAIL\REGEX_FWD.HPP
D:\PROJECTS\CMAKE HTTP FUNCTIONS\INCLUDE\ASIO-1.10.6\INCLUDE\ASIO\IMPL\READ_UNTIL.HPP
D:\PROJECTS\CMAKE HTTP FUNCTIONS\INCLUDE\ASIO-1.10.6\INCLUDE\ASIO\SERIAL_PORT.HPP
D:\PROJECTS\CMAKE HTTP FUNCTIONS\INCLUDE\ASIO-1.10.6\INCLUDE\ASIO\SIGNAL_SET.HPP
D:\PROJECTS\CMAKE HTTP FUNCTIONS\INCLUDE\ASIO-1.10.6\INCLUDE\ASIO\STRAND.HPP
D:\PROJECTS\CMAKE HTTP FUNCTIONS\INCLUDE\ASIO-1.10.6\INCLUDE\ASIO\DETAIL\STRAND_SERVICE.HPP
D:\PROJECTS\CMAKE HTTP FUNCTIONS\INCLUDE\ASIO-1.10.6\INCLUDE\ASIO\DETAIL\IMPL\STRAND_SERVICE.HPP
D:\PROJECTS\CMAKE HTTP FUNCTIONS\INCLUDE\ASIO-1.10.6\INCLUDE\ASIO\DETAIL\IMPL\STRAND_SERVICE.IPP
D:\PROJECTS\CMAKE HTTP FUNCTIONS\INCLUDE\ASIO-1.10.6\INCLUDE\ASIO\STREAMBUF.HPP
D:\PROJECTS\CMAKE HTTP FUNCTIONS\INCLUDE\ASIO-1.10.6\INCLUDE\ASIO\THREAD.HPP
D:\PROJECTS\CMAKE HTTP FUNCTIONS\INCLUDE\ASIO-1.10.6\INCLUDE\ASIO\TIME_TRAITS.HPP
D:\PROJECTS\CMAKE HTTP FUNCTIONS\INCLUDE\ASIO-1.10.6\INCLUDE\ASIO\VERSION.HPP
D:\PROJECTS\CMAKE HTTP FUNCTIONS\INCLUDE\ASIO-1.10.6\INCLUDE\ASIO\WINDOWS\BASIC_HANDLE.HPP
D:\PROJECTS\CMAKE HTTP FUNCTIONS\INCLUDE\ASIO-1.10.6\INCLUDE\ASIO\WINDOWS\BASIC_OBJECT_HANDLE.HPP
D:\PROJECTS\CMAKE HTTP FUNCTIONS\INCLUDE\ASIO-1.10.6\INCLUDE\ASIO\WINDOWS\OBJECT_HANDLE_SERVICE.HPP
D:\PROJECTS\CMAKE HTTP FUNCTIONS\INCLUDE\ASIO-1.10.6\INCLUDE\ASIO\DETAIL\WIN_OBJECT_HANDLE_SERVICE.HPP
D:\PROJECTS\CMAKE HTTP FUNCTIONS\INCLUDE\ASIO-1.10.6\INCLUDE\ASIO\DETAIL\IMPL\WIN_OBJECT_HANDLE_SERVICE.IPP
D:\PROJECTS\CMAKE HTTP FUNCTIONS\INCLUDE\ASIO-1.10.6\INCLUDE\ASIO\WINDOWS\BASIC_RANDOM_ACCESS_HANDLE.HPP
D:\PROJECTS\CMAKE HTTP FUNCTIONS\INCLUDE\ASIO-1.10.6\INCLUDE\ASIO\WINDOWS\RANDOM_ACCESS_HANDLE_SERVICE.HPP
D:\PROJECTS\CMAKE HTTP FUNCTIONS\INCLUDE\ASIO-1.10.6\INCLUDE\ASIO\WINDOWS\BASIC_STREAM_HANDLE.HPP
D:\PROJECTS\CMAKE HTTP FUNCTIONS\INCLUDE\ASIO-1.10.6\INCLUDE\ASIO\WINDOWS\STREAM_HANDLE_SERVICE.HPP
D:\PROJECTS\CMAKE HTTP FUNCTIONS\INCLUDE\ASIO-1.10.6\INCLUDE\ASIO\WINDOWS\OBJECT_HANDLE.HPP
D:\PROJECTS\CMAKE HTTP FUNCTIONS\INCLUDE\ASIO-1.10.6\INCLUDE\ASIO\WINDOWS\OVERLAPPED_PTR.HPP
D:\PROJECTS\CMAKE HTTP FUNCTIONS\INCLUDE\ASIO-1.10.6\INCLUDE\ASIO\DETAIL\WIN_IOCP_OVERLAPPED_PTR.HPP
D:\PROJECTS\CMAKE HTTP FUNCTIONS\INCLUDE\ASIO-1.10.6\INCLUDE\ASIO\DETAIL\WIN_IOCP_OVERLAPPED_OP.HPP
D:\PROJECTS\CMAKE HTTP FUNCTIONS\INCLUDE\ASIO-1.10.6\INCLUDE\ASIO\WINDOWS\RANDOM_ACCESS_HANDLE.HPP
D:\PROJECTS\CMAKE HTTP FUNCTIONS\INCLUDE\ASIO-1.10.6\INCLUDE\ASIO\WINDOWS\STREAM_HANDLE.HPP
D:\PROJECTS\CMAKE HTTP FUNCTIONS\INCLUDE\ASIO-1.10.6\INCLUDE\ASIO\WRITE_AT.HPP
D:\PROJECTS\CMAKE HTTP FUNCTIONS\INCLUDE\ASIO-1.10.6\INCLUDE\ASIO\IMPL\WRITE_AT.HPP
^D:\PROJECTS\CMAKE HTTP FUNCTIONS\SRC\HTTPEQUATION.CPP
D:\PROJECTS\CMAKE HTTP FUNCTIONS\INCLUDE\HTTPEQUATION.H
C:\PROGRAM FILES (X86)\MICROSOFT VISUAL STUDIO\2017\COMMUNITY\VC\TOOLS\MSVC\14.10.25017\INCLUDE\STRING
C:\PROGRAM FILES (X86)\MICROSOFT VISUAL STUDIO\2017\COMMUNITY\VC\TOOLS\MSVC\14.10.25017\INCLUDE\ISTREAM
C:\PROGRAM FILES (X86)\MICROSOFT VISUAL STUDIO\2017\COMMUNITY\VC\TOOLS\MSVC\14.10.25017\INCLUDE\OSTREAM
C:\PROGRAM FILES (X86)\MICROSOFT VISUAL STUDIO\2017\COMMUNITY\VC\TOOLS\MSVC\14.10.25017\INCLUDE\IOS
C:\PROGRAM FILES (X86)\MICROSOFT VISUAL STUDIO\2017\COMMUNITY\VC\TOOLS\MSVC\14.10.25017\INCLUDE\XLOCNUM
C:\PROGRAM FILES (X86)\MICROSOFT VISUAL STUDIO\2017\COMMUNITY\VC\TOOLS\MSVC\14.10.25017\INCLUDE\CLIMITS
C:\PROGRAM FILES (X86)\MICROSOFT VISUAL STUDIO\2017\COMMUNITY\VC\TOOLS\MSVC\14.10.25017\INCLUDE\YVALS.H
C:\PROGRAM FILES (X86)\MICROSOFT VISUAL STUDIO\2017\COMMUNITY\VC\TOOLS\MSVC\14.10.25017\INCLUDE\XKEYCHECK.H
C:\PROGRAM FILES (X86)\MICROSOFT VISUAL STUDIO\2017\COMMUNITY\VC\TOOLS\MSVC\14.10.25017\INCLUDE\CRTDEFS.H
C:\PROGRAM FILES (X86)\MICROSOFT VISUAL STUDIO\2017\COMMUNITY\VC\TOOLS\MSVC\14.10.25017\INCLUDE\VCRUNTIME.H
C:\PROGRAM FILES (X86)\MICROSOFT VISUAL STUDIO\2017\COMMUNITY\VC\TOOLS\MSVC\14.10.25017\INCLUDE\SAL.H
C:\PROGRAM FILES (X86)\MICROSOFT VISUAL STUDIO\2017\COMMUNITY\VC\TOOLS\MSVC\14.10.25017\INCLUDE\CONCURRENCYSAL.H
C:\PROGRAM FILES (X86)\MICROSOFT VISUAL STUDIO\2017\COMMUNITY\VC\TOOLS\MSVC\14.10.25017\INCLUDE\VADEFS.H
C:\PROGRAM FILES (X86)\WINDOWS KITS\10\INCLUDE\10.0.10240.0\UCRT\CORECRT.H
C:\PROGRAM FILES (X86)\MICROSOFT VISUAL STUDIO\2017\COMMUNITY\VC\TOOLS\MSVC\14.10.25017\INCLUDE\USE_ANSI.H
C:\PROGRAM FILES (X86)\MICROSOFT VISUAL STUDIO\2017\COMMUNITY\VC\TOOLS\MSVC\14.10.25017\INCLUDE\LIMITS.H
C:\PROGRAM FILES (X86)\MICROSOFT VISUAL STUDIO\2017\COMMUNITY\VC\TOOLS\MSVC\14.10.25017\INCLUDE\CMATH
C:\PROGRAM FILES (X86)\MICROSOFT VISUAL STUDIO\2017\COMMUNITY\VC\TOOLS\MSVC\14.10.25017\INCLUDE\CSTDLIB
C:\PROGRAM FILES (X86)\WINDOWS KITS\10\INCLUDE\10.0.10240.0\UCRT\STDLIB.H
C:\PROGRAM FILES (X86)\WINDOWS KITS\10\INCLUDE\10.0.10240.0\UCRT\CORECRT_MALLOC.H
C:\PROGRAM FILES (X86)\WINDOWS KITS\10\INCLUDE\10.0.10240.0\UCRT\CORECRT_SEARCH.H
C:\PROGRAM FILES (X86)\WINDOWS KITS\10\INCLUDE\10.0.10240.0\UCRT\STDDEF.H
C:\PROGRAM FILES (X86)\WINDOWS KITS\10\INCLUDE\10.0.10240.0\UCRT\CORECRT_WSTDLIB.H
C:\PROGRAM FILES (X86)\WINDOWS KITS\10\INCLUDE\10.0.10240.0\UCRT\MATH.H
C:\PROGRAM FILES (X86)\MICROSOFT VISUAL STUDIO\2017\COMMUNITY\VC\TOOLS\MSVC\14.10.25017\INCLUDE\XTGMATH.H
C:\PROGRAM FILES (X86)\MICROSOFT VISUAL STUDIO\2017\COMMUNITY\VC\TOOLS\MSVC\14.10.25017\INCLUDE\XTR1COMMON
C:\PROGRAM FILES (X86)\MICROSOFT VISUAL STUDIO\2017\COMMUNITY\VC\TOOLS\MSVC\14.10.25017\INCLUDE\CSTDIO
C:\PROGRAM FILES (X86)\WINDOWS KITS\10\INCLUDE\10.0.10240.0\UCRT\STDIO.H
C:\PROGRAM FILES (X86)\WINDOWS KITS\10\INCLUDE\10.0.10240.0\UCRT\CORECRT_WSTDIO.H
C:\PROGRAM FILES (X86)\WINDOWS KITS\10\INCLUDE\10.0.10240.0\UCRT\CORECRT_STDIO_CONFIG.H
C:\PROGRAM FILES (X86)\MICROSOFT VISUAL STUDIO\2017\COMMUNITY\VC\TOOLS\MSVC\14.10.25017\INCLUDE\STREAMBUF
C:\PROGRAM FILES (X86)\MICROSOFT VISUAL STUDIO\2017\COMMUNITY\VC\TOOLS\MSVC\14.10.25017\INCLUDE\XIOSBASE
C:\PROGRAM FILES (X86)\MICROSOFT VISUAL STUDIO\2017\COMMUNITY\VC\TOOLS\MSVC\14.10.25017\INCLUDE\XLOCALE
C:\PROGRAM FILES (X86)\MICROSOFT VISUAL STUDIO\2017\COMMUNITY\VC\TOOLS\MSVC\14.10.25017\INCLUDE\CSTRING
C:\PROGRAM FILES (X86)\WINDOWS KITS\10\INCLUDE\10.0.10240.0\UCRT\STRING.H
C:\PROGRAM FILES (X86)\WINDOWS KITS\10\INCLUDE\10.0.10240.0\UCRT\CORECRT_MEMORY.H
C:\PROGRAM FILES (X86)\WINDOWS KITS\10\INCLUDE\10.0.10240.0\UCRT\CORECRT_MEMCPY_S.H
C:\PROGRAM FILES (X86)\WINDOWS KITS\10\INCLUDE\10.0.10240.0\UCRT\ERRNO.H
C:\PROGRAM FILES (X86)\MICROSOFT VISUAL STUDIO\2017\COMMUNITY\VC\TOOLS\MSVC\14.10.25017\INCLUDE\VCRUNTIME_STRING.H
C:\PROGRAM FILES (X86)\WINDOWS KITS\10\INCLUDE\10.0.10240.0\UCRT\CORECRT_WSTRING.H
C:\PROGRAM FILES (X86)\MICROSOFT VISUAL STUDIO\2017\COMMUNITY\VC\TOOLS\MSVC\14.10.25017\INCLUDE\STDEXCEPT
C:\PROGRAM FILES (X86)\MICROSOFT VISUAL STUDIO\2017\COMMUNITY\VC\TOOLS\MSVC\14.10.25017\INCLUDE\EXCEPTION
C:\PROGRAM FILES (X86)\MICROSOFT VISUAL STUDIO\2017\COMMUNITY\VC\TOOLS\MSVC\14.10.25017\INCLUDE\TYPE_TRAITS
C:\PROGRAM FILES (X86)\MICROSOFT VISUAL STUDIO\2017\COMMUNITY\VC\TOOLS\MSVC\14.10.25017\INCLUDE\XSTDDEF
C:\PROGRAM FILES (X86)\MICROSOFT VISUAL STUDIO\2017\COMMUNITY\VC\TOOLS\MSVC\14.10.25017\INCLUDE\CSTDDEF
C:\PROGRAM FILES (X86)\MICROSOFT VISUAL STUDIO\2017\COMMUNITY\VC\TOOLS\MSVC\14.10.25017\INCLUDE\INITIALIZER_LIST
C:\PROGRAM FILES (X86)\WINDOWS KITS\10\INCLUDE\10.0.10240.0\UCRT\MALLOC.H
C:\PROGRAM FILES (X86)\MICROSOFT VISUAL STUDIO\2017\COMMUNITY\VC\TOOLS\MSVC\14.10.25017\INCLUDE\VCRUNTIME_EXCEPTION.H
C:\PROGRAM FILES (X86)\MICROSOFT VISUAL STUDIO\2017\COMMUNITY\VC\TOOLS\MSVC\14.10.25017\INCLUDE\EH.H
C:\PROGRAM FILES (X86)\WINDOWS KITS\10\INCLUDE\10.0.10240.0\UCRT\CORECRT_TERMINATE.H
C:\PROGRAM FILES (X86)\MICROSOFT VISUAL STUDIO\2017\COMMUNITY\VC\TOOLS\MSVC\14.10.25017\INCLUDE\XSTRING
C:\PROGRAM FILES (X86)\MICROSOFT VISUAL STUDIO\2017\COMMUNITY\VC\TOOLS\MSVC\14.10.25017\INCLUDE\XMEMORY0
C:\PROGRAM FILES (X86)\MICROSOFT VISUAL STUDIO\2017\COMMUNITY\VC\TOOLS\MSVC\14.10.25017\INCLUDE\CSTDINT
C:\PROGRAM FILES (X86)\MICROSOFT VISUAL STUDIO\2017\COMMUNITY\VC\TOOLS\MSVC\14.10.25017\INCLUDE\STDINT.H
C:\PROGRAM FILES (X86)\MICROSOFT VISUAL STUDIO\2017\COMMUNITY\VC\TOOLS\MSVC\14.10.25017\INCLUDE\LIMITS
C:\PROGRAM FILES (X86)\MICROSOFT VISUAL STUDIO\2017\COMMUNITY\VC\TOOLS\MSVC\14.10.25017\INCLUDE\YMATH.H
C:\PROGRAM FILES (X86)\MICROSOFT VISUAL STUDIO\2017\COMMUNITY\VC\TOOLS\MSVC\14.10.25017\INCLUDE\CFLOAT
C:\PROGRAM FILES (X86)\WINDOWS KITS\10\INCLUDE\10.0.10240.0\UCRT\FLOAT.H
C:\PROGRAM FILES (X86)\MICROSOFT VISUAL STUDIO\2017\COMMUNITY\VC\TOOLS\MSVC\14.10.25017\INCLUDE\CWCHAR
C:\PROGRAM FILES (X86)\WINDOWS KITS\10\INCLUDE\10.0.10240.0\UCRT\WCHAR.H
C:\PROGRAM FILES (X86)\WINDOWS KITS\10\INCLUDE\10.0.10240.0\UCRT\CORECRT_WCONIO.H
C:\PROGRAM FILES (X86)\WINDOWS KITS\10\INCLUDE\10.0.10240.0\UCRT\CORECRT_WCTYPE.H
C:\PROGRAM FILES (X86)\WINDOWS KITS\10\INCLUDE\10.0.10240.0\UCRT\CORECRT_WDIRECT.H
C:\PROGRAM FILES (X86)\WINDOWS KITS\10\INCLUDE\10.0.10240.0\UCRT\CORECRT_WIO.H
C:\PROGRAM FILES (X86)\WINDOWS KITS\10\INCLUDE\10.0.10240.0\UCRT\CORECRT_SHARE.H
C:\PROGRAM FILES (X86)\WINDOWS KITS\10\INCLUDE\10.0.10240.0\UCRT\CORECRT_WPROCESS.H
C:\PROGRAM FILES (X86)\WINDOWS KITS\10\INCLUDE\10.0.10240.0\UCRT\CORECRT_WTIME.H
C:\PROGRAM FILES (X86)\WINDOWS KITS\10\INCLUDE\10.0.10240.0\UCRT\SYS\STAT.H
C:\PROGRAM FILES (X86)\WINDOWS KITS\10\INCLUDE\10.0.10240.0\UCRT\SYS\TYPES.H
C:\PROGRAM FILES (X86)\MICROSOFT VISUAL STUDIO\2017\COMMUNITY\VC\TOOLS\MSVC\14.10.25017\INCLUDE\NEW
C:\PROGRAM FILES (X86)\MICROSOFT VISUAL STUDIO\2017\COMMUNITY\VC\TOOLS\MSVC\14.10.25017\INCLUDE\VCRUNTIME_NEW.H
C:\PROGRAM FILES (X86)\MICROSOFT VISUAL STUDIO\2017\COMMUNITY\VC\TOOLS\MSVC\14.10.25017\INCLUDE\XUTILITY
C:\PROGRAM FILES (X86)\MICROSOFT VISUAL STUDIO\2017\COMMUNITY\VC\TOOLS\MSVC\14.10.25017\INCLUDE\UTILITY
C:\PROGRAM FILES (X86)\MICROSOFT VISUAL STUDIO\2017\COMMUNITY\VC\TOOLS\MSVC\14.10.25017\INCLUDE\IOSFWD
C:\PROGRAM FILES (X86)\WINDOWS KITS\10\INCLUDE\10.0.10240.0\UCRT\CRTDBG.H
C:\PROGRAM FILES (X86)\MICROSOFT VISUAL STUDIO\2017\COMMUNITY\VC\TOOLS\MSVC\14.10.25017\INCLUDE\VCRUNTIME_NEW_DEBUG.H
C:\PROGRAM FILES (X86)\MICROSOFT VISUAL STUDIO\2017\COMMUNITY\VC\TOOLS\MSVC\14.10.25017\INCLUDE\XATOMIC0.H
C:\PROGRAM FILES (X86)\MICROSOFT VISUAL STUDIO\2017\COMMUNITY\VC\TOOLS\MSVC\14.10.25017\INCLUDE\INTRIN0.H
C:\PROGRAM FILES (X86)\MICROSOFT VISUAL STUDIO\2017\COMMUNITY\VC\TOOLS\MSVC\14.10.25017\INCLUDE\TYPEINFO
C:\PROGRAM FILES (X86)\MICROSOFT VISUAL STUDIO\2017\COMMUNITY\VC\TOOLS\MSVC\14.10.25017\INCLUDE\VCRUNTIME_TYPEINFO.H
C:\PROGRAM FILES (X86)\MICROSOFT VISUAL STUDIO\2017\COMMUNITY\VC\TOOLS\MSVC\14.10.25017\INCLUDE\XLOCINFO
C:\PROGRAM FILES (X86)\MICROSOFT VISUAL STUDIO\2017\COMMUNITY\VC\TOOLS\MSVC\14.10.25017\INCLUDE\XLOCINFO.H
C:\PROGRAM FILES (X86)\WINDOWS KITS\10\INCLUDE\10.0.10240.0\UCRT\CTYPE.H
C:\PROGRAM FILES (X86)\WINDOWS KITS\10\INCLUDE\10.0.10240.0\UCRT\LOCALE.H
C:\PROGRAM FILES (X86)\MICROSOFT VISUAL STUDIO\2017\COMMUNITY\VC\TOOLS\MSVC\14.10.25017\INCLUDE\XFACET
C:\PROGRAM FILES (X86)\MICROSOFT VISUAL STUDIO\2017\COMMUNITY\VC\TOOLS\MSVC\14.10.25017\INCLUDE\SYSTEM_ERROR
C:\PROGRAM FILES (X86)\MICROSOFT VISUAL STUDIO\2017\COMMUNITY\VC\TOOLS\MSVC\14.10.25017\INCLUDE\CERRNO
C:\PROGRAM FILES (X86)\WINDOWS KITS\10\INCLUDE\10.0.10240.0\UCRT\SHARE.H
C:\PROGRAM FILES (X86)\MICROSOFT VISUAL STUDIO\2017\COMMUNITY\VC\TOOLS\MSVC\14.10.25017\INCLUDE\XSTRING_INSERT.H
C:\PROGRAM FILES (X86)\MICROSOFT VISUAL STUDIO\2017\COMMUNITY\VC\TOOLS\MSVC\14.10.25017\INCLUDE\IOSTREAM
C:\PROGRAM FILES (X86)\MICROSOFT VISUAL STUDIO\2017\COMMUNITY\VC\TOOLS\MSVC\14.10.25017\INCLUDE\MEMORY
C:\PROGRAM FILES (X86)\MICROSOFT VISUAL STUDIO\2017\COMMUNITY\VC\TOOLS\MSVC\14.10.25017\INCLUDE\XMEMORY
C:\PROGRAM FILES (X86)\MICROSOFT VISUAL STUDIO\2017\COMMUNITY\VC\TOOLS\MSVC\14.10.25017\INCLUDE\MAP
C:\PROGRAM FILES (X86)\MICROSOFT VISUAL STUDIO\2017\COMMUNITY\VC\TOOLS\MSVC\14.10.25017\INCLUDE\TUPLE
C:\PROGRAM FILES (X86)\MICROSOFT VISUAL STUDIO\2017\COMMUNITY\VC\TOOLS\MSVC\14.10.25017\INCLUDE\XTREE
D:\PROJECTS\CMAKE HTTP FUNCTIONS\INCLUDE\ASIO.HPP
D:\PROJECTS\CMAKE HTTP FUNCTIONS\INCLUDE\ASIO-1.10.6\INCLUDE\ASIO\ASYNC_RESULT.HPP
D:\PROJECTS\CMAKE HTTP FUNCTIONS\INCLUDE\ASIO-1.10.6\INCLUDE\ASIO\DETAIL\CONFIG.HPP
D:\PROJECTS\CMAKE HTTP FUNCTIONS\INCLUDE\ASIO-1.10.6\INCLUDE\ASIO\HANDLER_TYPE.HPP
D:\PROJECTS\CMAKE HTTP FUNCTIONS\INCLUDE\ASIO-1.10.6\INCLUDE\ASIO\DETAIL\PUSH_OPTIONS.HPP
D:\PROJECTS\CMAKE HTTP FUNCTIONS\INCLUDE\ASIO-1.10.6\INCLUDE\ASIO\DETAIL\POP_OPTIONS.HPP
D:\PROJECTS\CMAKE HTTP FUNCTIONS\INCLUDE\ASIO-1.10.6\INCLUDE\ASIO\BASIC_DATAGRAM_SOCKET.HPP
D:\PROJECTS\CMAKE HTTP FUNCTIONS\INCLUDE\ASIO-1.10.6\INCLUDE\ASIO\BASIC_SOCKET.HPP
D:\PROJECTS\CMAKE HTTP FUNCTIONS\INCLUDE\ASIO-1.10.6\INCLUDE\ASIO\BASIC_IO_OBJECT.HPP
D:\PROJECTS\CMAKE HTTP FUNCTIONS\INCLUDE\ASIO-1.10.6\INCLUDE\ASIO\IO_SERVICE.HPP
D:\PROJECTS\CMAKE HTTP FUNCTIONS\INCLUDE\ASIO-1.10.6\INCLUDE\ASIO\DETAIL\NONCOPYABLE.HPP
D:\PROJECTS\CMAKE HTTP FUNCTIONS\INCLUDE\ASIO-1.10.6\INCLUDE\ASIO\DETAIL\WRAPPED_HANDLER.HPP
D:\PROJECTS\CMAKE HTTP FUNCTIONS\INCLUDE\ASIO-1.10.6\INCLUDE\ASIO\DETAIL\BIND_HANDLER.HPP
D:\PROJECTS\CMAKE HTTP FUNCTIONS\INCLUDE\ASIO-1.10.6\INCLUDE\ASIO\DETAIL\HANDLER_ALLOC_HELPERS.HPP
D:\PROJECTS\CMAKE HTTP FUNCTIONS\INCLUDE\ASIO-1.10.6\INCLUDE\ASIO\DETAIL\ADDRESSOF.HPP
D:\PROJECTS\CMAKE HTTP FUNCTIONS\INCLUDE\ASIO-1.10.6\INCLUDE\ASIO\HANDLER_ALLOC_HOOK.HPP
D:\PROJECTS\CMAKE HTTP FUNCTIONS\INCLUDE\ASIO-1.10.6\INCLUDE\ASIO\IMPL\HANDLER_ALLOC_HOOK.IPP
D:\PROJECTS\CMAKE HTTP FUNCTIONS\INCLUDE\ASIO-1.10.6\INCLUDE\ASIO\DETAIL\CALL_STACK.HPP
D:\PROJECTS\CMAKE HTTP FUNCTIONS\INCLUDE\ASIO-1.10.6\INCLUDE\ASIO\DETAIL\TSS_PTR.HPP
D:\PROJECTS\CMAKE HTTP FUNCTIONS\INCLUDE\ASIO-1.10.6\INCLUDE\ASIO\DETAIL\WIN_TSS_PTR.HPP
D:\PROJECTS\CMAKE HTTP FUNCTIONS\INCLUDE\ASIO-1.10.6\INCLUDE\ASIO\DETAIL\SOCKET_TYPES.HPP
C:\PROGRAM FILES (X86)\WINDOWS KITS\8.1\INCLUDE\UM\WINSOCK2.H
C:\PROGRAM FILES (X86)\WINDOWS KITS\8.1\INCLUDE\SHARED\WINAPIFAMILY.H
C:\PROGRAM FILES (X86)\WINDOWS KITS\8.1\INCLUDE\UM\WINDOWS.H
C:\PROGRAM FILES (X86)\WINDOWS KITS\8.1\INCLUDE\SHARED\SDKDDKVER.H
C:\PROGRAM FILES (X86)\MICROSOFT VISUAL STUDIO\2017\COMMUNITY\VC\TOOLS\MSVC\14.10.25017\INCLUDE\EXCPT.H
C:\PROGRAM FILES (X86)\MICROSOFT VISUAL STUDIO\2017\COMMUNITY\VC\TOOLS\MSVC\14.10.25017\INCLUDE\STDARG.H
C:\PROGRAM FILES (X86)\WINDOWS KITS\8.1\INCLUDE\SHARED\WINDEF.H
C:\PROGRAM FILES (X86)\WINDOWS KITS\8.1\INCLUDE\SHARED\MINWINDEF.H
C:\PROGRAM FILES (X86)\WINDOWS KITS\8.1\INCLUDE\SHARED\SPECSTRINGS.H
C:\PROGRAM FILES (X86)\WINDOWS KITS\8.1\INCLUDE\SHARED\SPECSTRINGS_STRICT.H
C:\PROGRAM FILES (X86)\WINDOWS KITS\8.1\INCLUDE\SHARED\SPECSTRINGS_UNDEF.H
C:\PROGRAM FILES (X86)\WINDOWS KITS\8.1\INCLUDE\SHARED\DRIVERSPECS.H
C:\PROGRAM FILES (X86)\WINDOWS KITS\8.1\INCLUDE\SHARED\SDV_DRIVERSPECS.H
C:\PROGRAM FILES (X86)\WINDOWS KITS\8.1\INCLUDE\UM\WINNT.H
C:\PROGRAM FILES (X86)\WINDOWS KITS\8.1\INCLUDE\SHARED\KERNELSPECS.H
C:\PROGRAM FILES (X86)\WINDOWS KITS\8.1\INCLUDE\SHARED\BASETSD.H
C:\PROGRAM FILES (X86)\WINDOWS KITS\8.1\INCLUDE\SHARED\GUIDDEF.H
C:\PROGRAM FILES (X86)\WINDOWS KITS\8.1\INCLUDE\SHARED\PSHPACK4.H
C:\PROGRAM FILES (X86)\WINDOWS KITS\8.1\INCLUDE\SHARED\POPPACK.H
C:\PROGRAM FILES (X86)\WINDOWS KITS\8.1\INCLUDE\SHARED\PSHPACK2.H
C:\PROGRAM FILES (X86)\WINDOWS KITS\8.1\INCLUDE\SHARED\PSHPACK8.H
C:\PROGRAM FILES (X86)\WINDOWS KITS\8.1\INCLUDE\SHARED\APISET.H
C:\PROGRAM FILES (X86)\WINDOWS KITS\8.1\INCLUDE\SHARED\KTMTYPES.H
C:\PROGRAM FILES (X86)\WINDOWS KITS\8.1\INCLUDE\UM\WINBASE.H
C:\PROGRAM FILES (X86)\WINDOWS KITS\8.1\INCLUDE\SHARED\APISETCCONV.H
C:\PROGRAM FILES (X86)\WINDOWS KITS\8.1\INCLUDE\UM\MINWINBASE.H
C:\PROGRAM FILES (X86)\WINDOWS KITS\8.1\INCLUDE\UM\PROCESSENV.H
C:\PROGRAM FILES (X86)\WINDOWS KITS\8.1\INCLUDE\UM\FILEAPI.H
C:\PROGRAM FILES (X86)\WINDOWS KITS\8.1\INCLUDE\UM\DEBUGAPI.H
C:\PROGRAM FILES (X86)\WINDOWS KITS\8.1\INCLUDE\UM\UTILAPISET.H
C:\PROGRAM FILES (X86)\WINDOWS KITS\8.1\INCLUDE\UM\HANDLEAPI.H
C:\PROGRAM FILES (X86)\WINDOWS KITS\8.1\INCLUDE\UM\ERRHANDLINGAPI.H
C:\PROGRAM FILES (X86)\WINDOWS KITS\8.1\INCLUDE\UM\FIBERSAPI.H
C:\PROGRAM FILES (X86)\WINDOWS KITS\8.1\INCLUDE\UM\NAMEDPIPEAPI.H
C:\PROGRAM FILES (X86)\WINDOWS KITS\8.1\INCLUDE\UM\PROFILEAPI.H
C:\PROGRAM FILES (X86)\WINDOWS KITS\8.1\INCLUDE\UM\HEAPAPI.H
C:\PROGRAM FILES (X86)\WINDOWS KITS\8.1\INCLUDE\UM\IOAPISET.H
C:\PROGRAM FILES (X86)\WINDOWS KITS\8.1\INCLUDE\UM\SYNCHAPI.H
C:\PROGRAM FILES (X86)\WINDOWS KITS\8.1\INCLUDE\UM\INTERLOCKEDAPI.H
C:\PROGRAM FILES (X86)\WINDOWS KITS\8.1\INCLUDE\UM\PROCESSTHREADSAPI.H
C:\PROGRAM FILES (X86)\WINDOWS KITS\8.1\INCLUDE\UM\SYSINFOAPI.H
C:\PROGRAM FILES (X86)\WINDOWS KITS\8.1\INCLUDE\UM\MEMORYAPI.H
C:\PROGRAM FILES (X86)\WINDOWS KITS\8.1\INCLUDE\UM\THREADPOOLLEGACYAPISET.H
C:\PROGRAM FILES (X86)\WINDOWS KITS\8.1\INCLUDE\UM\THREADPOOLAPISET.H
C:\PROGRAM FILES (X86)\WINDOWS KITS\8.1\INCLUDE\UM\BEMAPISET.H
C:\PROGRAM FILES (X86)\WINDOWS KITS\8.1\INCLUDE\UM\JOBAPI.H
C:\PROGRAM FILES (X86)\WINDOWS KITS\8.1\INCLUDE\UM\WOW64APISET.H
C:\PROGRAM FILES (X86)\WINDOWS KITS\8.1\INCLUDE\UM\LIBLOADERAPI.H
C:\PROGRAM FILES (X86)\WINDOWS KITS\8.1\INCLUDE\UM\SECURITYBASEAPI.H
C:\PROGRAM FILES (X86)\WINDOWS KITS\8.1\INCLUDE\UM\NAMESPACEAPI.H
C:\PROGRAM FILES (X86)\WINDOWS KITS\8.1\INCLUDE\UM\SYSTEMTOPOLOGYAPI.H
C:\PROGRAM FILES (X86)\WINDOWS KITS\8.1\INCLUDE\UM\PROCESSTOPOLOGYAPI.H
C:\PROGRAM FILES (X86)\WINDOWS KITS\8.1\INCLUDE\UM\SECURITYAPPCONTAINER.H
C:\PROGRAM FILES (X86)\WINDOWS KITS\8.1\INCLUDE\UM\REALTIMEAPISET.H
C:\PROGRAM FILES (X86)\WINDOWS KITS\8.1\INCLUDE\SHARED\WINERROR.H
C:\PROGRAM FILES (X86)\WINDOWS KITS\8.1\INCLUDE\UM\TIMEZONEAPI.H
C:\PROGRAM FILES (X86)\WINDOWS KITS\8.1\INCLUDE\UM\WINGDI.H
C:\PROGRAM FILES (X86)\WINDOWS KITS\8.1\INCLUDE\SHARED\PSHPACK1.H
C:\PROGRAM FILES (X86)\WINDOWS KITS\8.1\INCLUDE\UM\WINUSER.H
C:\PROGRAM FILES (X86)\WINDOWS KITS\8.1\INCLUDE\SHARED\TVOUT.H
C:\PROGRAM FILES (X86)\WINDOWS KITS\8.1\INCLUDE\UM\WINNLS.H
C:\PROGRAM FILES (X86)\WINDOWS KITS\8.1\INCLUDE\UM\DATETIMEAPI.H
C:\PROGRAM FILES (X86)\WINDOWS KITS\8.1\INCLUDE\UM\STRINGAPISET.H
C:\PROGRAM FILES (X86)\WINDOWS KITS\8.1\INCLUDE\UM\WINCON.H
C:\PROGRAM FILES (X86)\WINDOWS KITS\8.1\INCLUDE\UM\CONSOLEAPI.H
C:\PROGRAM FILES (X86)\WINDOWS KITS\8.1\INCLUDE\UM\WINVER.H
C:\PROGRAM FILES (X86)\WINDOWS KITS\8.1\INCLUDE\UM\VERRSRC.H
C:\PROGRAM FILES (X86)\WINDOWS KITS\8.1\INCLUDE\UM\WINREG.H
C:\PROGRAM FILES (X86)\WINDOWS KITS\8.1\INCLUDE\UM\REASON.H
C:\PROGRAM FILES (X86)\WINDOWS KITS\8.1\INCLUDE\UM\WINNETWK.H
C:\PROGRAM FILES (X86)\WINDOWS KITS\8.1\INCLUDE\SHARED\WNNC.H
C:\PROGRAM FILES (X86)\WINDOWS KITS\8.1\INCLUDE\SHARED\STRALIGN.H
C:\PROGRAM FILES (X86)\WINDOWS KITS\8.1\INCLUDE\UM\WINSVC.H
C:\PROGRAM FILES (X86)\WINDOWS KITS\8.1\INCLUDE\UM\MCX.H
C:\PROGRAM FILES (X86)\WINDOWS KITS\8.1\INCLUDE\UM\IMM.H
C:\PROGRAM FILES (X86)\WINDOWS KITS\8.1\INCLUDE\UM\IME_CMODES.H
C:\PROGRAM FILES (X86)\WINDOWS KITS\8.1\INCLUDE\SHARED\WS2DEF.H
C:\PROGRAM FILES (X86)\WINDOWS KITS\8.1\INCLUDE\SHARED\INADDR.H
C:\PROGRAM FILES (X86)\WINDOWS KITS\8.1\INCLUDE\SHARED\QOS.H
C:\PROGRAM FILES (X86)\WINDOWS KITS\8.1\INCLUDE\UM\WS2TCPIP.H
C:\PROGRAM FILES (X86)\WINDOWS KITS\8.1\INCLUDE\SHARED\WS2IPDEF.H
C:\PROGRAM FILES (X86)\WINDOWS KITS\8.1\INCLUDE\SHARED\IN6ADDR.H
C:\PROGRAM FILES (X86)\WINDOWS KITS\8.1\INCLUDE\UM\MSWSOCK.H
C:\PROGRAM FILES (X86)\WINDOWS KITS\8.1\INCLUDE\SHARED\MSWSOCKDEF.H
D:\PROJECTS\CMAKE HTTP FUNCTIONS\INCLUDE\ASIO-1.10.6\INCLUDE\ASIO\DETAIL\OLD_WIN_SDK_COMPAT.HPP
D:\PROJECTS\CMAKE HTTP FUNCTIONS\INCLUDE\ASIO-1.10.6\INCLUDE\ASIO\DETAIL\IMPL\WIN_TSS_PTR.IPP
D:\PROJECTS\CMAKE HTTP FUNCTIONS\INCLUDE\ASIO-1.10.6\INCLUDE\ASIO\DETAIL\THROW_ERROR.HPP
D:\PROJECTS\CMAKE HTTP FUNCTIONS\INCLUDE\ASIO-1.10.6\INCLUDE\ASIO\ERROR_CODE.HPP
D:\PROJECTS\CMAKE HTTP FUNCTIONS\INCLUDE\ASIO-1.10.6\INCLUDE\ASIO\IMPL\ERROR_CODE.IPP
D:\PROJECTS\CMAKE HTTP FUNCTIONS\INCLUDE\ASIO-1.10.6\INCLUDE\ASIO\DETAIL\LOCAL_FREE_ON_BLOCK_EXIT.HPP
D:\PROJECTS\CMAKE HTTP FUNCTIONS\INCLUDE\ASIO-1.10.6\INCLUDE\ASIO\DETAIL\IMPL\THROW_ERROR.IPP
D:\PROJECTS\CMAKE HTTP FUNCTIONS\INCLUDE\ASIO-1.10.6\INCLUDE\ASIO\DETAIL\THROW_EXCEPTION.HPP
D:\PROJECTS\CMAKE HTTP FUNCTIONS\INCLUDE\ASIO-1.10.6\INCLUDE\ASIO\SYSTEM_ERROR.HPP
D:\PROJECTS\CMAKE HTTP FUNCTIONS\INCLUDE\ASIO-1.10.6\INCLUDE\ASIO\ERROR.HPP
D:\PROJECTS\CMAKE HTTP FUNCTIONS\INCLUDE\ASIO-1.10.6\INCLUDE\ASIO\IMPL\ERROR.IPP
D:\PROJECTS\CMAKE HTTP FUNCTIONS\INCLUDE\ASIO-1.10.6\INCLUDE\ASIO\DETAIL\WIN_IOCP_THREAD_INFO.HPP
D:\PROJECTS\CMAKE HTTP FUNCTIONS\INCLUDE\ASIO-1.10.6\INCLUDE\ASIO\DETAIL\THREAD_INFO_BASE.HPP
D:\PROJECTS\CMAKE HTTP FUNCTIONS\INCLUDE\ASIO-1.10.6\INCLUDE\ASIO\DETAIL\HANDLER_CONT_HELPERS.HPP
D:\PROJECTS\CMAKE HTTP FUNCTIONS\INCLUDE\ASIO-1.10.6\INCLUDE\ASIO\HANDLER_CONTINUATION_HOOK.HPP
D:\PROJECTS\CMAKE HTTP FUNCTIONS\INCLUDE\ASIO-1.10.6\INCLUDE\ASIO\DETAIL\HANDLER_INVOKE_HELPERS.HPP
D:\PROJECTS\CMAKE HTTP FUNCTIONS\INCLUDE\ASIO-1.10.6\INCLUDE\ASIO\HANDLER_INVOKE_HOOK.HPP
D:\PROJECTS\CMAKE HTTP FUNCTIONS\INCLUDE\ASIO-1.10.6\INCLUDE\ASIO\DETAIL\WINSOCK_INIT.HPP
D:\PROJECTS\CMAKE HTTP FUNCTIONS\INCLUDE\ASIO-1.10.6\INCLUDE\ASIO\DETAIL\IMPL\WINSOCK_INIT.IPP
D:\PROJECTS\CMAKE HTTP FUNCTIONS\INCLUDE\ASIO-1.10.6\INCLUDE\ASIO\IMPL\IO_SERVICE.HPP
D:\PROJECTS\CMAKE HTTP FUNCTIONS\INCLUDE\ASIO-1.10.6\INCLUDE\ASIO\DETAIL\HANDLER_TYPE_REQUIREMENTS.HPP
D:\PROJECTS\CMAKE HTTP FUNCTIONS\INCLUDE\ASIO-1.10.6\INCLUDE\ASIO\DETAIL\SERVICE_REGISTRY.HPP
D:\PROJECTS\CMAKE HTTP FUNCTIONS\INCLUDE\ASIO-1.10.6\INCLUDE\ASIO\DETAIL\MUTEX.HPP
D:\PROJECTS\CMAKE HTTP FUNCTIONS\INCLUDE\ASIO-1.10.6\INCLUDE\ASIO\DETAIL\WIN_MUTEX.HPP
D:\PROJECTS\CMAKE HTTP FUNCTIONS\INCLUDE\ASIO-1.10.6\INCLUDE\ASIO\DETAIL\SCOPED_LOCK.HPP
D:\PROJECTS\CMAKE HTTP FUNCTIONS\INCLUDE\ASIO-1.10.6\INCLUDE\ASIO\DETAIL\IMPL\WIN_MUTEX.IPP
D:\PROJECTS\CMAKE HTTP FUNCTIONS\INCLUDE\ASIO-1.10.6\INCLUDE\ASIO\DETAIL\IMPL\SERVICE_REGISTRY.HPP
D:\PROJECTS\CMAKE HTTP FUNCTIONS\INCLUDE\ASIO-1.10.6\INCLUDE\ASIO\DETAIL\IMPL\SERVICE_REGISTRY.IPP
C:\PROGRAM FILES (X86)\MICROSOFT VISUAL STUDIO\2017\COMMUNITY\VC\TOOLS\MSVC\14.10.25017\INCLUDE\VECTOR
D:\PROJECTS\CMAKE HTTP FUNCTIONS\INCLUDE\ASIO-1.10.6\INCLUDE\ASIO\DETAIL\WIN_IOCP_IO_SERVICE.HPP
D:\PROJECTS\CMAKE HTTP FUNCTIONS\INCLUDE\ASIO-1.10.6\INCLUDE\ASIO\DETAIL\LIMITS.HPP
D:\PROJECTS\CMAKE HTTP FUNCTIONS\INCLUDE\ASIO-1.10.6\INCLUDE\ASIO\DETAIL\OP_QUEUE.HPP
D:\PROJECTS\CMAKE HTTP FUNCTIONS\INCLUDE\ASIO-1.10.6\INCLUDE\ASIO\DETAIL\SCOPED_PTR.HPP
D:\PROJECTS\CMAKE HTTP FUNCTIONS\INCLUDE\ASIO-1.10.6\INCLUDE\ASIO\DETAIL\THREAD.HPP
D:\PROJECTS\CMAKE HTTP FUNCTIONS\INCLUDE\ASIO-1.10.6\INCLUDE\ASIO\DETAIL\WIN_THREAD.HPP
D:\PROJECTS\CMAKE HTTP FUNCTIONS\INCLUDE\ASIO-1.10.6\INCLUDE\ASIO\DETAIL\IMPL\WIN_THREAD.IPP
C:\PROGRAM FILES (X86)\WINDOWS KITS\10\INCLUDE\10.0.10240.0\UCRT\PROCESS.H
C:\PROGRAM FILES (X86)\WINDOWS KITS\10\INCLUDE\10.0.10240.0\UCRT\CORECRT_STARTUP.H
C:\PROGRAM FILES (X86)\MICROSOFT VISUAL STUDIO\2017\COMMUNITY\VC\TOOLS\MSVC\14.10.25017\INCLUDE\VCRUNTIME_STARTUP.H
D:\PROJECTS\CMAKE HTTP FUNCTIONS\INCLUDE\ASIO-1.10.6\INCLUDE\ASIO\DETAIL\TIMER_QUEUE_BASE.HPP
D:\PROJECTS\CMAKE HTTP FUNCTIONS\INCLUDE\ASIO-1.10.6\INCLUDE\ASIO\DETAIL\OPERATION.HPP
D:\PROJECTS\CMAKE HTTP FUNCTIONS\INCLUDE\ASIO-1.10.6\INCLUDE\ASIO\DETAIL\WIN_IOCP_OPERATION.HPP
D:\PROJECTS\CMAKE HTTP FUNCTIONS\INCLUDE\ASIO-1.10.6\INCLUDE\ASIO\DETAIL\HANDLER_TRACKING.HPP
D:\PROJECTS\CMAKE HTTP FUNCTIONS\INCLUDE\ASIO-1.10.6\INCLUDE\ASIO\DETAIL\IMPL\HANDLER_TRACKING.IPP
D:\PROJECTS\CMAKE HTTP FUNCTIONS\INCLUDE\ASIO-1.10.6\INCLUDE\ASIO\DETAIL\TIMER_QUEUE_SET.HPP
D:\PROJECTS\CMAKE HTTP FUNCTIONS\INCLUDE\ASIO-1.10.6\INCLUDE\ASIO\DETAIL\IMPL\TIMER_QUEUE_SET.IPP
D:\PROJECTS\CMAKE HTTP FUNCTIONS\INCLUDE\ASIO-1.10.6\INCLUDE\ASIO\DETAIL\WAIT_OP.HPP
D:\PROJECTS\CMAKE HTTP FUNCTIONS\INCLUDE\ASIO-1.10.6\INCLUDE\ASIO\DETAIL\IMPL\WIN_IOCP_IO_SERVICE.HPP
D:\PROJECTS\CMAKE HTTP FUNCTIONS\INCLUDE\ASIO-1.10.6\INCLUDE\ASIO\DETAIL\COMPLETION_HANDLER.HPP
D:\PROJECTS\CMAKE HTTP FUNCTIONS\INCLUDE\ASIO-1.10.6\INCLUDE\ASIO\DETAIL\FENCED_BLOCK.HPP
D:\PROJECTS\CMAKE HTTP FUNCTIONS\INCLUDE\ASIO-1.10.6\INCLUDE\ASIO\DETAIL\WIN_FENCED_BLOCK.HPP
D:\PROJECTS\CMAKE HTTP FUNCTIONS\INCLUDE\ASIO-1.10.6\INCLUDE\ASIO\DETAIL\IMPL\WIN_IOCP_IO_SERVICE.IPP
D:\PROJECTS\CMAKE HTTP FUNCTIONS\INCLUDE\ASIO-1.10.6\INCLUDE\ASIO\DETAIL\CSTDINT.HPP
D:\PROJECTS\CMAKE HTTP FUNCTIONS\INCLUDE\ASIO-1.10.6\INCLUDE\ASIO\IMPL\IO_SERVICE.IPP
D:\PROJECTS\CMAKE HTTP FUNCTIONS\INCLUDE\ASIO-1.10.6\INCLUDE\ASIO\DETAIL\TYPE_TRAITS.HPP
D:\PROJECTS\CMAKE HTTP FUNCTIONS\INCLUDE\ASIO-1.10.6\INCLUDE\ASIO\SOCKET_BASE.HPP
D:\PROJECTS\CMAKE HTTP FUNCTIONS\INCLUDE\ASIO-1.10.6\INCLUDE\ASIO\DETAIL\IO_CONTROL.HPP
D:\PROJECTS\CMAKE HTTP FUNCTIONS\INCLUDE\ASIO-1.10.6\INCLUDE\ASIO\DETAIL\SOCKET_OPTION.HPP
D:\PROJECTS\CMAKE HTTP FUNCTIONS\INCLUDE\ASIO-1.10.6\INCLUDE\ASIO\DATAGRAM_SOCKET_SERVICE.HPP
D:\PROJECTS\CMAKE HTTP FUNCTIONS\INCLUDE\ASIO-1.10.6\INCLUDE\ASIO\DETAIL\WIN_IOCP_SOCKET_SERVICE.HPP
D:\PROJECTS\CMAKE HTTP FUNCTIONS\INCLUDE\ASIO-1.10.6\INCLUDE\ASIO\DETAIL\BUFFER_SEQUENCE_ADAPTER.HPP
D:\PROJECTS\CMAKE HTTP FUNCTIONS\INCLUDE\ASIO-1.10.6\INCLUDE\ASIO\BUFFER.HPP
D:\PROJECTS\CMAKE HTTP FUNCTIONS\INCLUDE\ASIO-1.10.6\INCLUDE\ASIO\DETAIL\ARRAY_FWD.HPP
C:\PROGRAM FILES (X86)\MICROSOFT VISUAL STUDIO\2017\COMMUNITY\VC\TOOLS\MSVC\14.10.25017\INCLUDE\ARRAY
C:\PROGRAM FILES (X86)\MICROSOFT VISUAL STUDIO\2017\COMMUNITY\VC\TOOLS\MSVC\14.10.25017\INCLUDE\ALGORITHM
C:\PROGRAM FILES (X86)\MICROSOFT VISUAL STUDIO\2017\COMMUNITY\VC\TOOLS\MSVC\14.10.25017\INCLUDE\ITERATOR
D:\PROJECTS\CMAKE HTTP FUNCTIONS\INCLUDE\ASIO-1.10.6\INCLUDE\ASIO\DETAIL\FUNCTION.HPP
C:\PROGRAM FILES (X86)\MICROSOFT VISUAL STUDIO\2017\COMMUNITY\VC\TOOLS\MSVC\14.10.25017\INCLUDE\FUNCTIONAL
C:\PROGRAM FILES (X86)\MICROSOFT VISUAL STUDIO\2017\COMMUNITY\VC\TOOLS\MSVC\14.10.25017\INCLUDE\XFUNCTIONAL
D:\PROJECTS\CMAKE HTTP FUNCTIONS\INCLUDE\ASIO-1.10.6\INCLUDE\ASIO\DETAIL\IMPL\BUFFER_SEQUENCE_ADAPTER.IPP
D:\PROJECTS\CMAKE HTTP FUNCTIONS\INCLUDE\ASIO-1.10.6\INCLUDE\ASIO\DETAIL\REACTOR.HPP
D:\PROJECTS\CMAKE HTTP FUNCTIONS\INCLUDE\ASIO-1.10.6\INCLUDE\ASIO\DETAIL\REACTOR_FWD.HPP
D:\PROJECTS\CMAKE HTTP FUNCTIONS\INCLUDE\ASIO-1.10.6\INCLUDE\ASIO\DETAIL\SELECT_REACTOR.HPP
D:\PROJECTS\CMAKE HTTP FUNCTIONS\INCLUDE\ASIO-1.10.6\INCLUDE\ASIO\DETAIL\FD_SET_ADAPTER.HPP
D:\PROJECTS\CMAKE HTTP FUNCTIONS\INCLUDE\ASIO-1.10.6\INCLUDE\ASIO\DETAIL\POSIX_FD_SET_ADAPTER.HPP
D:\PROJECTS\CMAKE HTTP FUNCTIONS\INCLUDE\ASIO-1.10.6\INCLUDE\ASIO\DETAIL\WIN_FD_SET_ADAPTER.HPP
D:\PROJECTS\CMAKE HTTP FUNCTIONS\INCLUDE\ASIO-1.10.6\INCLUDE\ASIO\DETAIL\REACTOR_OP_QUEUE.HPP
D:\PROJECTS\CMAKE HTTP FUNCTIONS\INCLUDE\ASIO-1.10.6\INCLUDE\ASIO\DETAIL\HASH_MAP.HPP
C:\PROGRAM FILES (X86)\MICROSOFT VISUAL STUDIO\2017\COMMUNITY\VC\TOOLS\MSVC\14.10.25017\INCLUDE\LIST
D:\PROJECTS\CMAKE HTTP FUNCTIONS\INCLUDE\ASIO-1.10.6\INCLUDE\ASIO\DETAIL\ASSERT.HPP
C:\PROGRAM FILES (X86)\MICROSOFT VISUAL STUDIO\2017\COMMUNITY\VC\TOOLS\MSVC\14.10.25017\INCLUDE\CASSERT
C:\PROGRAM FILES (X86)\WINDOWS KITS\10\INCLUDE\10.0.10240.0\UCRT\ASSERT.H
D:\PROJECTS\CMAKE HTTP FUNCTIONS\INCLUDE\ASIO-1.10.6\INCLUDE\ASIO\DETAIL\REACTOR_OP.HPP
D:\PROJECTS\CMAKE HTTP FUNCTIONS\INCLUDE\ASIO-1.10.6\INCLUDE\ASIO\DETAIL\SELECT_INTERRUPTER.HPP
D:\PROJECTS\CMAKE HTTP FUNCTIONS\INCLUDE\ASIO-1.10.6\INCLUDE\ASIO\DETAIL\SOCKET_SELECT_INTERRUPTER.HPP
D:\PROJECTS\CMAKE HTTP FUNCTIONS\INCLUDE\ASIO-1.10.6\INCLUDE\ASIO\DETAIL\IMPL\SOCKET_SELECT_INTERRUPTER.IPP
D:\PROJECTS\CMAKE HTTP FUNCTIONS\INCLUDE\ASIO-1.10.6\INCLUDE\ASIO\DETAIL\SOCKET_HOLDER.HPP
D:\PROJECTS\CMAKE HTTP FUNCTIONS\INCLUDE\ASIO-1.10.6\INCLUDE\ASIO\DETAIL\SOCKET_OPS.HPP
D:\PROJECTS\CMAKE HTTP FUNCTIONS\INCLUDE\ASIO-1.10.6\INCLUDE\ASIO\DETAIL\SHARED_PTR.HPP
D:\PROJECTS\CMAKE HTTP FUNCTIONS\INCLUDE\ASIO-1.10.6\INCLUDE\ASIO\DETAIL\WEAK_PTR.HPP
D:\PROJECTS\CMAKE HTTP FUNCTIONS\INCLUDE\ASIO-1.10.6\INCLUDE\ASIO\DETAIL\IMPL\SOCKET_OPS.IPP
C:\PROGRAM FILES (X86)\MICROSOFT VISUAL STUDIO\2017\COMMUNITY\VC\TOOLS\MSVC\14.10.25017\INCLUDE\CCTYPE
D:\PROJECTS\CMAKE HTTP FUNCTIONS\INCLUDE\ASIO-1.10.6\INCLUDE\ASIO\DETAIL\IMPL\SELECT_REACTOR.HPP
D:\PROJECTS\CMAKE HTTP FUNCTIONS\INCLUDE\ASIO-1.10.6\INCLUDE\ASIO\DETAIL\IMPL\SELECT_REACTOR.IPP
D:\PROJECTS\CMAKE HTTP FUNCTIONS\INCLUDE\ASIO-1.10.6\INCLUDE\ASIO\DETAIL\SIGNAL_BLOCKER.HPP
D:\PROJECTS\CMAKE HTTP FUNCTIONS\INCLUDE\ASIO-1.10.6\INCLUDE\ASIO\DETAIL\NULL_SIGNAL_BLOCKER.HPP
D:\PROJECTS\CMAKE HTTP FUNCTIONS\INCLUDE\ASIO-1.10.6\INCLUDE\ASIO\DETAIL\WIN_IOCP_NULL_BUFFERS_OP.HPP
D:\PROJECTS\CMAKE HTTP FUNCTIONS\INCLUDE\ASIO-1.10.6\INCLUDE\ASIO\DETAIL\WIN_IOCP_SOCKET_ACCEPT_OP.HPP
D:\PROJECTS\CMAKE HTTP FUNCTIONS\INCLUDE\ASIO-1.10.6\INCLUDE\ASIO\DETAIL\WIN_IOCP_SOCKET_SERVICE_BASE.HPP
D:\PROJECTS\CMAKE HTTP FUNCTIONS\INCLUDE\ASIO-1.10.6\INCLUDE\ASIO\DETAIL\WIN_IOCP_SOCKET_CONNECT_OP.HPP
D:\PROJECTS\CMAKE HTTP FUNCTIONS\INCLUDE\ASIO-1.10.6\INCLUDE\ASIO\DETAIL\WIN_IOCP_SOCKET_SEND_OP.HPP
D:\PROJECTS\CMAKE HTTP FUNCTIONS\INCLUDE\ASIO-1.10.6\INCLUDE\ASIO\DETAIL\WIN_IOCP_SOCKET_RECV_OP.HPP
D:\PROJECTS\CMAKE HTTP FUNCTIONS\INCLUDE\ASIO-1.10.6\INCLUDE\ASIO\DETAIL\WIN_IOCP_SOCKET_RECVMSG_OP.HPP
D:\PROJECTS\CMAKE HTTP FUNCTIONS\INCLUDE\ASIO-1.10.6\INCLUDE\ASIO\DETAIL\IMPL\WIN_IOCP_SOCKET_SERVICE_BASE.IPP
D:\PROJECTS\CMAKE HTTP FUNCTIONS\INCLUDE\ASIO-1.10.6\INCLUDE\ASIO\DETAIL\WIN_IOCP_SOCKET_RECVFROM_OP.HPP
D:\PROJECTS\CMAKE HTTP FUNCTIONS\INCLUDE\ASIO-1.10.6\INCLUDE\ASIO\BASIC_DEADLINE_TIMER.HPP
D:\PROJECTS\CMAKE HTTP FUNCTIONS\INCLUDE\ASIO-1.10.6\INCLUDE\ASIO\BASIC_RAW_SOCKET.HPP
D:\PROJECTS\CMAKE HTTP FUNCTIONS\INCLUDE\ASIO-1.10.6\INCLUDE\ASIO\RAW_SOCKET_SERVICE.HPP
D:\PROJECTS\CMAKE HTTP FUNCTIONS\INCLUDE\ASIO-1.10.6\INCLUDE\ASIO\BASIC_SEQ_PACKET_SOCKET.HPP
D:\PROJECTS\CMAKE HTTP FUNCTIONS\INCLUDE\ASIO-1.10.6\INCLUDE\ASIO\SEQ_PACKET_SOCKET_SERVICE.HPP
D:\PROJECTS\CMAKE HTTP FUNCTIONS\INCLUDE\ASIO-1.10.6\INCLUDE\ASIO\BASIC_SERIAL_PORT.HPP
D:\PROJECTS\CMAKE HTTP FUNCTIONS\INCLUDE\ASIO-1.10.6\INCLUDE\ASIO\SERIAL_PORT_BASE.HPP
D:\PROJECTS\CMAKE HTTP FUNCTIONS\INCLUDE\ASIO-1.10.6\INCLUDE\ASIO\IMPL\SERIAL_PORT_BASE.HPP
D:\PROJECTS\CMAKE HTTP FUNCTIONS\INCLUDE\ASIO-1.10.6\INCLUDE\ASIO\IMPL\SERIAL_PORT_BASE.IPP
D:\PROJECTS\CMAKE HTTP FUNCTIONS\INCLUDE\ASIO-1.10.6\INCLUDE\ASIO\SERIAL_PORT_SERVICE.HPP
D:\PROJECTS\CMAKE HTTP FUNCTIONS\INCLUDE\ASIO-1.10.6\INCLUDE\ASIO\DETAIL\REACTIVE_SERIAL_PORT_SERVICE.HPP
D:\PROJECTS\CMAKE HTTP FUNCTIONS\INCLUDE\ASIO-1.10.6\INCLUDE\ASIO\DETAIL\WIN_IOCP_SERIAL_PORT_SERVICE.HPP
D:\PROJECTS\CMAKE HTTP FUNCTIONS\INCLUDE\ASIO-1.10.6\INCLUDE\ASIO\DETAIL\WIN_IOCP_HANDLE_SERVICE.HPP
D:\PROJECTS\CMAKE HTTP FUNCTIONS\INCLUDE\ASIO-1.10.6\INCLUDE\ASIO\DETAIL\WIN_IOCP_HANDLE_READ_OP.HPP
D:\PROJECTS\CMAKE HTTP FUNCTIONS\INCLUDE\ASIO-1.10.6\INCLUDE\ASIO\DETAIL\WIN_IOCP_HANDLE_WRITE_OP.HPP
D:\PROJECTS\CMAKE HTTP FUNCTIONS\INCLUDE\ASIO-1.10.6\INCLUDE\ASIO\DETAIL\IMPL\WIN_IOCP_HANDLE_SERVICE.IPP
D:\PROJECTS\CMAKE HTTP FUNCTIONS\INCLUDE\ASIO-1.10.6\INCLUDE\ASIO\DETAIL\IMPL\WIN_IOCP_SERIAL_PORT_SERVICE.IPP
D:\PROJECTS\CMAKE HTTP FUNCTIONS\INCLUDE\ASIO-1.10.6\INCLUDE\ASIO\BASIC_SIGNAL_SET.HPP
D:\PROJECTS\CMAKE HTTP FUNCTIONS\INCLUDE\ASIO-1.10.6\INCLUDE\ASIO\SIGNAL_SET_SERVICE.HPP
D:\PROJECTS\CMAKE HTTP FUNCTIONS\INCLUDE\ASIO-1.10.6\INCLUDE\ASIO\DETAIL\SIGNAL_SET_SERVICE.HPP
C:\PROGRAM FILES (X86)\WINDOWS KITS\10\INCLUDE\10.0.10240.0\UCRT\SIGNAL.H
D:\PROJECTS\CMAKE HTTP FUNCTIONS\INCLUDE\ASIO-1.10.6\INCLUDE\ASIO\DETAIL\SIGNAL_HANDLER.HPP
D:\PROJECTS\CMAKE HTTP FUNCTIONS\INCLUDE\ASIO-1.10.6\INCLUDE\ASIO\DETAIL\SIGNAL_OP.HPP
D:\PROJECTS\CMAKE HTTP FUNCTIONS\INCLUDE\ASIO-1.10.6\INCLUDE\ASIO\DETAIL\IMPL\SIGNAL_SET_SERVICE.IPP
D:\PROJECTS\CMAKE HTTP FUNCTIONS\INCLUDE\ASIO-1.10.6\INCLUDE\ASIO\DETAIL\STATIC_MUTEX.HPP
D:\PROJECTS\CMAKE HTTP FUNCTIONS\INCLUDE\ASIO-1.10.6\INCLUDE\ASIO\DETAIL\WIN_STATIC_MUTEX.HPP
D:\PROJECTS\CMAKE HTTP FUNCTIONS\INCLUDE\ASIO-1.10.6\INCLUDE\ASIO\DETAIL\IMPL\WIN_STATIC_MUTEX.IPP
D:\PROJECTS\CMAKE HTTP FUNCTIONS\INCLUDE\ASIO-1.10.6\INCLUDE\ASIO\BASIC_SOCKET_ACCEPTOR.HPP
D:\PROJECTS\CMAKE HTTP FUNCTIONS\INCLUDE\ASIO-1.10.6\INCLUDE\ASIO\SOCKET_ACCEPTOR_SERVICE.HPP
D:\PROJECTS\CMAKE HTTP FUNCTIONS\INCLUDE\ASIO-1.10.6\INCLUDE\ASIO\BASIC_SOCKET_IOSTREAM.HPP
D:\PROJECTS\CMAKE HTTP FUNCTIONS\INCLUDE\ASIO-1.10.6\INCLUDE\ASIO\BASIC_SOCKET_STREAMBUF.HPP
D:\PROJECTS\CMAKE HTTP FUNCTIONS\INCLUDE\ASIO-1.10.6\INCLUDE\ASIO\DEADLINE_TIMER_SERVICE.HPP
D:\PROJECTS\CMAKE HTTP FUNCTIONS\INCLUDE\ASIO-1.10.6\INCLUDE\ASIO\DETAIL\ARRAY.HPP
D:\PROJECTS\CMAKE HTTP FUNCTIONS\INCLUDE\ASIO-1.10.6\INCLUDE\ASIO\STREAM_SOCKET_SERVICE.HPP
D:\PROJECTS\CMAKE HTTP FUNCTIONS\INCLUDE\ASIO-1.10.6\INCLUDE\ASIO\STEADY_TIMER.HPP
C:\PROGRAM FILES (X86)\MICROSOFT VISUAL STUDIO\2017\COMMUNITY\VC\TOOLS\MSVC\14.10.25017\INCLUDE\CHRONO
C:\PROGRAM FILES (X86)\MICROSOFT VISUAL STUDIO\2017\COMMUNITY\VC\TOOLS\MSVC\14.10.25017\INCLUDE\RATIO
C:\PROGRAM FILES (X86)\WINDOWS KITS\10\INCLUDE\10.0.10240.0\UCRT\TIME.H
C:\PROGRAM FILES (X86)\MICROSOFT VISUAL STUDIO\2017\COMMUNITY\VC\TOOLS\MSVC\14.10.25017\INCLUDE\THR\XTIMEC.H
C:\PROGRAM FILES (X86)\MICROSOFT VISUAL STUDIO\2017\COMMUNITY\VC\TOOLS\MSVC\14.10.25017\INCLUDE\THR\XTHRCOMMON.H
D:\PROJECTS\CMAKE HTTP FUNCTIONS\INCLUDE\ASIO-1.10.6\INCLUDE\ASIO\BASIC_WAITABLE_TIMER.HPP
D:\PROJECTS\CMAKE HTTP FUNCTIONS\INCLUDE\ASIO-1.10.6\INCLUDE\ASIO\WAIT_TRAITS.HPP
D:\PROJECTS\CMAKE HTTP FUNCTIONS\INCLUDE\ASIO-1.10.6\INCLUDE\ASIO\WAITABLE_TIMER_SERVICE.HPP
D:\PROJECTS\CMAKE HTTP FUNCTIONS\INCLUDE\ASIO-1.10.6\INCLUDE\ASIO\DETAIL\CHRONO_TIME_TRAITS.HPP
D:\PROJECTS\CMAKE HTTP FUNCTIONS\INCLUDE\ASIO-1.10.6\INCLUDE\ASIO\DETAIL\DEADLINE_TIMER_SERVICE.HPP
D:\PROJECTS\CMAKE HTTP FUNCTIONS\INCLUDE\ASIO-1.10.6\INCLUDE\ASIO\DETAIL\TIMER_QUEUE.HPP
D:\PROJECTS\CMAKE HTTP FUNCTIONS\INCLUDE\ASIO-1.10.6\INCLUDE\ASIO\DETAIL\DATE_TIME_FWD.HPP
D:\PROJECTS\CMAKE HTTP FUNCTIONS\INCLUDE\ASIO-1.10.6\INCLUDE\ASIO\DETAIL\TIMER_SCHEDULER.HPP
D:\PROJECTS\CMAKE HTTP FUNCTIONS\INCLUDE\ASIO-1.10.6\INCLUDE\ASIO\DETAIL\TIMER_SCHEDULER_FWD.HPP
D:\PROJECTS\CMAKE HTTP FUNCTIONS\INCLUDE\ASIO-1.10.6\INCLUDE\ASIO\DETAIL\WAIT_HANDLER.HPP
D:\PROJECTS\CMAKE HTTP FUNCTIONS\INCLUDE\ASIO-1.10.6\INCLUDE\ASIO\DETAIL\VARIADIC_TEMPLATES.HPP
D:\PROJECTS\CMAKE HTTP FUNCTIONS\INCLUDE\ASIO-1.10.6\INCLUDE\ASIO\BASIC_STREAM_SOCKET.HPP
D:\PROJECTS\CMAKE HTTP FUNCTIONS\INCLUDE\ASIO-1.10.6\INCLUDE\ASIO\BASIC_STREAMBUF.HPP
D:\PROJECTS\CMAKE HTTP FUNCTIONS\INCLUDE\ASIO-1.10.6\INCLUDE\ASIO\BASIC_STREAMBUF_FWD.HPP
D:\PROJECTS\CMAKE HTTP FUNCTIONS\INCLUDE\ASIO-1.10.6\INCLUDE\ASIO\BUFFERED_READ_STREAM_FWD.HPP
D:\PROJECTS\CMAKE HTTP FUNCTIONS\INCLUDE\ASIO-1.10.6\INCLUDE\ASIO\BUFFERED_READ_STREAM.HPP
D:\PROJECTS\CMAKE HTTP FUNCTIONS\INCLUDE\ASIO-1.10.6\INCLUDE\ASIO\DETAIL\BUFFER_RESIZE_GUARD.HPP
D:\PROJECTS\CMAKE HTTP FUNCTIONS\INCLUDE\ASIO-1.10.6\INCLUDE\ASIO\DETAIL\BUFFERED_STREAM_STORAGE.HPP
D:\PROJECTS\CMAKE HTTP FUNCTIONS\INCLUDE\ASIO-1.10.6\INCLUDE\ASIO\IMPL\BUFFERED_READ_STREAM.HPP
D:\PROJECTS\CMAKE HTTP FUNCTIONS\INCLUDE\ASIO-1.10.6\INCLUDE\ASIO\BUFFERED_STREAM_FWD.HPP
D:\PROJECTS\CMAKE HTTP FUNCTIONS\INCLUDE\ASIO-1.10.6\INCLUDE\ASIO\BUFFERED_STREAM.HPP
D:\PROJECTS\CMAKE HTTP FUNCTIONS\INCLUDE\ASIO-1.10.6\INCLUDE\ASIO\BUFFERED_WRITE_STREAM.HPP
D:\PROJECTS\CMAKE HTTP FUNCTIONS\INCLUDE\ASIO-1.10.6\INCLUDE\ASIO\BUFFERED_WRITE_STREAM_FWD.HPP
D:\PROJECTS\CMAKE HTTP FUNCTIONS\INCLUDE\ASIO-1.10.6\INCLUDE\ASIO\COMPLETION_CONDITION.HPP
D:\PROJECTS\CMAKE HTTP FUNCTIONS\INCLUDE\ASIO-1.10.6\INCLUDE\ASIO\WRITE.HPP
D:\PROJECTS\CMAKE HTTP FUNCTIONS\INCLUDE\ASIO-1.10.6\INCLUDE\ASIO\IMPL\WRITE.HPP
D:\PROJECTS\CMAKE HTTP FUNCTIONS\INCLUDE\ASIO-1.10.6\INCLUDE\ASIO\DETAIL\BASE_FROM_COMPLETION_COND.HPP
D:\PROJECTS\CMAKE HTTP FUNCTIONS\INCLUDE\ASIO-1.10.6\INCLUDE\ASIO\DETAIL\CONSUMING_BUFFERS.HPP
D:\PROJECTS\CMAKE HTTP FUNCTIONS\INCLUDE\ASIO-1.10.6\INCLUDE\ASIO\DETAIL\DEPENDENT_TYPE.HPP
D:\PROJECTS\CMAKE HTTP FUNCTIONS\INCLUDE\ASIO-1.10.6\INCLUDE\ASIO\IMPL\BUFFERED_WRITE_STREAM.HPP
D:\PROJECTS\CMAKE HTTP FUNCTIONS\INCLUDE\ASIO-1.10.6\INCLUDE\ASIO\BUFFERS_ITERATOR.HPP
D:\PROJECTS\CMAKE HTTP FUNCTIONS\INCLUDE\ASIO-1.10.6\INCLUDE\ASIO\CONNECT.HPP
D:\PROJECTS\CMAKE HTTP FUNCTIONS\INCLUDE\ASIO-1.10.6\INCLUDE\ASIO\IMPL\CONNECT.HPP
D:\PROJECTS\CMAKE HTTP FUNCTIONS\INCLUDE\ASIO-1.10.6\INCLUDE\ASIO\COROUTINE.HPP
D:\PROJECTS\CMAKE HTTP FUNCTIONS\INCLUDE\ASIO-1.10.6\INCLUDE\ASIO\DEADLINE_TIMER.HPP
D:\PROJECTS\CMAKE HTTP FUNCTIONS\INCLUDE\ASIO-1.10.6\INCLUDE\ASIO\GENERIC\BASIC_ENDPOINT.HPP
D:\PROJECTS\CMAKE HTTP FUNCTIONS\INCLUDE\ASIO-1.10.6\INCLUDE\ASIO\GENERIC\DETAIL\ENDPOINT.HPP
D:\PROJECTS\CMAKE HTTP FUNCTIONS\INCLUDE\ASIO-1.10.6\INCLUDE\ASIO\GENERIC\DETAIL\IMPL\ENDPOINT.IPP
D:\PROJECTS\CMAKE HTTP FUNCTIONS\INCLUDE\ASIO-1.10.6\INCLUDE\ASIO\GENERIC\DATAGRAM_PROTOCOL.HPP
D:\PROJECTS\CMAKE HTTP FUNCTIONS\INCLUDE\ASIO-1.10.6\INCLUDE\ASIO\GENERIC\RAW_PROTOCOL.HPP
D:\PROJECTS\CMAKE HTTP FUNCTIONS\INCLUDE\ASIO-1.10.6\INCLUDE\ASIO\GENERIC\SEQ_PACKET_PROTOCOL.HPP
D:\PROJECTS\CMAKE HTTP FUNCTIONS\INCLUDE\ASIO-1.10.6\INCLUDE\ASIO\GENERIC\STREAM_PROTOCOL.HPP
D:\PROJECTS\CMAKE HTTP FUNCTIONS\INCLUDE\ASIO-1.10.6\INCLUDE\ASIO\IP\ADDRESS.HPP
D:\PROJECTS\CMAKE HTTP FUNCTIONS\INCLUDE\ASIO-1.10.6\INCLUDE\ASIO\IP\ADDRESS_V4.HPP
D:\PROJECTS\CMAKE HTTP FUNCTIONS\INCLUDE\ASIO-1.10.6\INCLUDE\ASIO\IP\IMPL\ADDRESS_V4.HPP
D:\PROJECTS\CMAKE HTTP FUNCTIONS\INCLUDE\ASIO-1.10.6\INCLUDE\ASIO\IP\IMPL\ADDRESS_V4.IPP
D:\PROJECTS\CMAKE HTTP FUNCTIONS\INCLUDE\ASIO-1.10.6\INCLUDE\ASIO\IP\ADDRESS_V6.HPP
D:\PROJECTS\CMAKE HTTP FUNCTIONS\INCLUDE\ASIO-1.10.6\INCLUDE\ASIO\IP\IMPL\ADDRESS_V6.HPP
D:\PROJECTS\CMAKE HTTP FUNCTIONS\INCLUDE\ASIO-1.10.6\INCLUDE\ASIO\IP\IMPL\ADDRESS_V6.IPP
D:\PROJECTS\CMAKE HTTP FUNCTIONS\INCLUDE\ASIO-1.10.6\INCLUDE\ASIO\IP\IMPL\ADDRESS.HPP
D:\PROJECTS\CMAKE HTTP FUNCTIONS\INCLUDE\ASIO-1.10.6\INCLUDE\ASIO\IP\IMPL\ADDRESS.IPP
D:\PROJECTS\CMAKE HTTP FUNCTIONS\INCLUDE\ASIO-1.10.6\INCLUDE\ASIO\IP\BASIC_ENDPOINT.HPP
D:\PROJECTS\CMAKE HTTP FUNCTIONS\INCLUDE\ASIO-1.10.6\INCLUDE\ASIO\IP\DETAIL\ENDPOINT.HPP
D:\PROJECTS\CMAKE HTTP FUNCTIONS\INCLUDE\ASIO-1.10.6\INCLUDE\ASIO\IP\DETAIL\IMPL\ENDPOINT.IPP
C:\PROGRAM FILES (X86)\MICROSOFT VISUAL STUDIO\2017\COMMUNITY\VC\TOOLS\MSVC\14.10.25017\INCLUDE\SSTREAM
D:\PROJECTS\CMAKE HTTP FUNCTIONS\INCLUDE\ASIO-1.10.6\INCLUDE\ASIO\IP\IMPL\BASIC_ENDPOINT.HPP
D:\PROJECTS\CMAKE HTTP FUNCTIONS\INCLUDE\ASIO-1.10.6\INCLUDE\ASIO\IP\BASIC_RESOLVER.HPP
D:\PROJECTS\CMAKE HTTP FUNCTIONS\INCLUDE\ASIO-1.10.6\INCLUDE\ASIO\IP\BASIC_RESOLVER_ITERATOR.HPP
D:\PROJECTS\CMAKE HTTP FUNCTIONS\INCLUDE\ASIO-1.10.6\INCLUDE\ASIO\IP\BASIC_RESOLVER_ENTRY.HPP
D:\PROJECTS\CMAKE HTTP FUNCTIONS\INCLUDE\ASIO-1.10.6\INCLUDE\ASIO\IP\BASIC_RESOLVER_QUERY.HPP
D:\PROJECTS\CMAKE HTTP FUNCTIONS\INCLUDE\ASIO-1.10.6\INCLUDE\ASIO\IP\RESOLVER_QUERY_BASE.HPP
D:\PROJECTS\CMAKE HTTP FUNCTIONS\INCLUDE\ASIO-1.10.6\INCLUDE\ASIO\IP\RESOLVER_SERVICE.HPP
D:\PROJECTS\CMAKE HTTP FUNCTIONS\INCLUDE\ASIO-1.10.6\INCLUDE\ASIO\DETAIL\RESOLVER_SERVICE.HPP
D:\PROJECTS\CMAKE HTTP FUNCTIONS\INCLUDE\ASIO-1.10.6\INCLUDE\ASIO\DETAIL\RESOLVE_ENDPOINT_OP.HPP
D:\PROJECTS\CMAKE HTTP FUNCTIONS\INCLUDE\ASIO-1.10.6\INCLUDE\ASIO\DETAIL\RESOLVE_OP.HPP
D:\PROJECTS\CMAKE HTTP FUNCTIONS\INCLUDE\ASIO-1.10.6\INCLUDE\ASIO\DETAIL\RESOLVER_SERVICE_BASE.HPP
D:\PROJECTS\CMAKE HTTP FUNCTIONS\INCLUDE\ASIO-1.10.6\INCLUDE\ASIO\DETAIL\IMPL\RESOLVER_SERVICE_BASE.IPP
D:\PROJECTS\CMAKE HTTP FUNCTIONS\INCLUDE\ASIO-1.10.6\INCLUDE\ASIO\IP\HOST_NAME.HPP
D:\PROJECTS\CMAKE HTTP FUNCTIONS\INCLUDE\ASIO-1.10.6\INCLUDE\ASIO\IP\IMPL\HOST_NAME.IPP
D:\PROJECTS\CMAKE HTTP FUNCTIONS\INCLUDE\ASIO-1.10.6\INCLUDE\ASIO\IP\ICMP.HPP
D:\PROJECTS\CMAKE HTTP FUNCTIONS\INCLUDE\ASIO-1.10.6\INCLUDE\ASIO\IP\MULTICAST.HPP
D:\PROJECTS\CMAKE HTTP FUNCTIONS\INCLUDE\ASIO-1.10.6\INCLUDE\ASIO\IP\DETAIL\SOCKET_OPTION.HPP
D:\PROJECTS\CMAKE HTTP FUNCTIONS\INCLUDE\ASIO-1.10.6\INCLUDE\ASIO\IP\TCP.HPP
D:\PROJECTS\CMAKE HTTP FUNCTIONS\INCLUDE\ASIO-1.10.6\INCLUDE\ASIO\IP\UDP.HPP
D:\PROJECTS\CMAKE HTTP FUNCTIONS\INCLUDE\ASIO-1.10.6\INCLUDE\ASIO\IP\UNICAST.HPP
D:\PROJECTS\CMAKE HTTP FUNCTIONS\INCLUDE\ASIO-1.10.6\INCLUDE\ASIO\IP\V6_ONLY.HPP
D:\PROJECTS\CMAKE HTTP FUNCTIONS\INCLUDE\ASIO-1.10.6\INCLUDE\ASIO\IS_READ_BUFFERED.HPP
D:\PROJECTS\CMAKE HTTP FUNCTIONS\INCLUDE\ASIO-1.10.6\INCLUDE\ASIO\IS_WRITE_BUFFERED.HPP
D:\PROJECTS\CMAKE HTTP FUNCTIONS\INCLUDE\ASIO-1.10.6\INCLUDE\ASIO\LOCAL\BASIC_ENDPOINT.HPP
D:\PROJECTS\CMAKE HTTP FUNCTIONS\INCLUDE\ASIO-1.10.6\INCLUDE\ASIO\LOCAL\CONNECT_PAIR.HPP
D:\PROJECTS\CMAKE HTTP FUNCTIONS\INCLUDE\ASIO-1.10.6\INCLUDE\ASIO\LOCAL\DATAGRAM_PROTOCOL.HPP
D:\PROJECTS\CMAKE HTTP FUNCTIONS\INCLUDE\ASIO-1.10.6\INCLUDE\ASIO\LOCAL\STREAM_PROTOCOL.HPP
D:\PROJECTS\CMAKE HTTP FUNCTIONS\INCLUDE\ASIO-1.10.6\INCLUDE\ASIO\PLACEHOLDERS.HPP
D:\PROJECTS\CMAKE HTTP FUNCTIONS\INCLUDE\ASIO-1.10.6\INCLUDE\ASIO\POSIX\BASIC_DESCRIPTOR.HPP
D:\PROJECTS\CMAKE HTTP FUNCTIONS\INCLUDE\ASIO-1.10.6\INCLUDE\ASIO\POSIX\BASIC_STREAM_DESCRIPTOR.HPP
D:\PROJECTS\CMAKE HTTP FUNCTIONS\INCLUDE\ASIO-1.10.6\INCLUDE\ASIO\POSIX\DESCRIPTOR_BASE.HPP
D:\PROJECTS\CMAKE HTTP FUNCTIONS\INCLUDE\ASIO-1.10.6\INCLUDE\ASIO\POSIX\STREAM_DESCRIPTOR.HPP
D:\PROJECTS\CMAKE HTTP FUNCTIONS\INCLUDE\ASIO-1.10.6\INCLUDE\ASIO\POSIX\STREAM_DESCRIPTOR_SERVICE.HPP
D:\PROJECTS\CMAKE HTTP FUNCTIONS\INCLUDE\ASIO-1.10.6\INCLUDE\ASIO\READ.HPP
D:\PROJECTS\CMAKE HTTP FUNCTIONS\INCLUDE\ASIO-1.10.6\INCLUDE\ASIO\IMPL\READ.HPP
D:\PROJECTS\CMAKE HTTP FUNCTIONS\INCLUDE\ASIO-1.10.6\INCLUDE\ASIO\READ_AT.HPP
D:\PROJECTS\CMAKE HTTP FUNCTIONS\INCLUDE\ASIO-1.10.6\INCLUDE\ASIO\IMPL\READ_AT.HPP
D:\PROJECTS\CMAKE HTTP FUNCTIONS\INCLUDE\ASIO-1.10.6\INCLUDE\ASIO\READ_UNTIL.HPP
D:\PROJECTS\CMAKE HTTP FUNCTIONS\INCLUDE\ASIO-1.10.6\INCLUDE\ASIO\DETAIL\REGEX_FWD.HPP
D:\PROJECTS\CMAKE HTTP FUNCTIONS\INCLUDE\ASIO-1.10.6\INCLUDE\ASIO\IMPL\READ_UNTIL.HPP
D:\PROJECTS\CMAKE HTTP FUNCTIONS\INCLUDE\ASIO-1.10.6\INCLUDE\ASIO\SERIAL_PORT.HPP
D:\PROJECTS\CMAKE HTTP FUNCTIONS\INCLUDE\ASIO-1.10.6\INCLUDE\ASIO\SIGNAL_SET.HPP
D:\PROJECTS\CMAKE HTTP FUNCTIONS\INCLUDE\ASIO-1.10.6\INCLUDE\ASIO\STRAND.HPP
D:\PROJECTS\CMAKE HTTP FUNCTIONS\INCLUDE\ASIO-1.10.6\INCLUDE\ASIO\DETAIL\STRAND_SERVICE.HPP
D:\PROJECTS\CMAKE HTTP FUNCTIONS\INCLUDE\ASIO-1.10.6\INCLUDE\ASIO\DETAIL\IMPL\STRAND_SERVICE.HPP
D:\PROJECTS\CMAKE HTTP FUNCTIONS\INCLUDE\ASIO-1.10.6\INCLUDE\ASIO\DETAIL\IMPL\STRAND_SERVICE.IPP
D:\PROJECTS\CMAKE HTTP FUNCTIONS\INCLUDE\ASIO-1.10.6\INCLUDE\ASIO\STREAMBUF.HPP
D:\PROJECTS\CMAKE HTTP FUNCTIONS\INCLUDE\ASIO-1.10.6\INCLUDE\ASIO\THREAD.HPP
D:\PROJECTS\CMAKE HTTP FUNCTIONS\INCLUDE\ASIO-1.10.6\INCLUDE\ASIO\TIME_TRAITS.HPP
D:\PROJECTS\CMAKE HTTP FUNCTIONS\INCLUDE\ASIO-1.10.6\INCLUDE\ASIO\VERSION.HPP
D:\PROJECTS\CMAKE HTTP FUNCTIONS\INCLUDE\ASIO-1.10.6\INCLUDE\ASIO\WINDOWS\BASIC_HANDLE.HPP
D:\PROJECTS\CMAKE HTTP FUNCTIONS\INCLUDE\ASIO-1.10.6\INCLUDE\ASIO\WINDOWS\BASIC_OBJECT_HANDLE.HPP
D:\PROJECTS\CMAKE HTTP FUNCTIONS\INCLUDE\ASIO-1.10.6\INCLUDE\ASIO\WINDOWS\OBJECT_HANDLE_SERVICE.HPP
D:\PROJECTS\CMAKE HTTP FUNCTIONS\INCLUDE\ASIO-1.10.6\INCLUDE\ASIO\DETAIL\WIN_OBJECT_HANDLE_SERVICE.HPP
D:\PROJECTS\CMAKE HTTP FUNCTIONS\INCLUDE\ASIO-1.10.6\INCLUDE\ASIO\DETAIL\IMPL\WIN_OBJECT_HANDLE_SERVICE.IPP
D:\PROJECTS\CMAKE HTTP FUNCTIONS\INCLUDE\ASIO-1.10.6\INCLUDE\ASIO\WINDOWS\BASIC_RANDOM_ACCESS_HANDLE.HPP
D:\PROJECTS\CMAKE HTTP FUNCTIONS\INCLUDE\ASIO-1.10.6\INCLUDE\ASIO\WINDOWS\RANDOM_ACCESS_HANDLE_SERVICE.HPP
D:\PROJECTS\CMAKE HTTP FUNCTIONS\INCLUDE\ASIO-1.10.6\INCLUDE\ASIO\WINDOWS\BASIC_STREAM_HANDLE.HPP
D:\PROJECTS\CMAKE HTTP FUNCTIONS\INCLUDE\ASIO-1.10.6\INCLUDE\ASIO\WINDOWS\STREAM_HANDLE_SERVICE.HPP
D:\PROJECTS\CMAKE HTTP FUNCTIONS\INCLUDE\ASIO-1.10.6\INCLUDE\ASIO\WINDOWS\OBJECT_HANDLE.HPP
D:\PROJECTS\CMAKE HTTP FUNCTIONS\INCLUDE\ASIO-1.10.6\INCLUDE\ASIO\WINDOWS\OVERLAPPED_PTR.HPP
D:\PROJECTS\CMAKE HTTP FUNCTIONS\INCLUDE\ASIO-1.10.6\INCLUDE\ASIO\DETAIL\WIN_IOCP_OVERLAPPED_PTR.HPP
D:\PROJECTS\CMAKE HTTP FUNCTIONS\INCLUDE\ASIO-1.10.6\INCLUDE\ASIO\DETAIL\WIN_IOCP_OVERLAPPED_OP.HPP
D:\PROJECTS\CMAKE HTTP FUNCTIONS\INCLUDE\ASIO-1.10.6\INCLUDE\ASIO\WINDOWS\RANDOM_ACCESS_HANDLE.HPP
D:\PROJECTS\CMAKE HTTP FUNCTIONS\INCLUDE\ASIO-1.10.6\INCLUDE\ASIO\WINDOWS\STREAM_HANDLE.HPP
D:\PROJECTS\CMAKE HTTP FUNCTIONS\INCLUDE\ASIO-1.10.6\INCLUDE\ASIO\WRITE_AT.HPP
D:\PROJECTS\CMAKE HTTP FUNCTIONS\INCLUDE\ASIO-1.10.6\INCLUDE\ASIO\IMPL\WRITE_AT.HPP
